START 5208 -260 11008 -1193 -3084 3586 END
START 4428 -1696 12016 -1439 -3362 3596 END
START 4984 -196 11616 -1894 -3076 3057 END
START 5800 -12 10924 -3060 -2683 2644 END
START 6416 -224 11036 -4089 -2098 2221 END
START 6964 -368 11484 -5026 -1572 1750 END
START 7648 -524 12216 -5682 -938 1139 END
START 8228 -756 12848 -6068 -292 361 END
START 8912 -1104 13516 -6197 481 -614 END
START 8980 -1384 13976 -6110 1399 -1853 END
START 8664 -1336 14308 -5935 1972 -3156 END
START 7976 -1744 14212 -5834 2155 -4171 END
START 7512 -1988 14496 -5982 2093 -4987 END
START 7076 -2504 15256 -6066 1752 -5638 END
START 6908 -2852 15736 -5817 1157 -6350 END
START 6732 -3108 16040 -5577 523 -7123 END
START 6664 -3280 16208 -5549 68 -7840 END
START 6216 -3384 16604 -5680 70 -8350 END
START 5892 -3712 17300 -5800 265 -8751 END
START 5840 -4004 17596 -5961 1084 -9023 END
START 5228 -4012 18716 -5934 2102 -9359 END
START 4524 -4192 19564 -5523 2521 -9567 END
START 3988 -4504 20412 -4723 2088 -9816 END
START 3500 -4264 21204 -3691 1182 -10098 END
START 3132 -4068 21144 -2681 135 -10427 END
START 3000 -3864 21156 -1874 -571 -10652 END
START 3092 -3632 20764 -1461 -680 -10840 END
START 2960 -3596 20664 -1212 -117 -11070 END
START 2480 -3608 20884 -899 658 -11359 END
START 1336 -3664 21408 -397 1029 -11287 END
START 804 -3768 21468 70 943 -11025 END
START 796 -3888 21980 536 637 -10825 END
START 960 -3796 22208 1112 509 -10694 END
START 812 -3836 22180 1779 808 -10700 END
START 776 -3684 22068 2363 1192 -10809 END
START 512 -3888 22308 2798 1377 -10843 END
START -48 -4156 22992 3484 1379 -10833 END
START -484 -4252 23212 4602 1198 -10777 END
START -904 -4260 23060 5883 951 -10656 END
START -1432 -4228 22536 6817 760 -10451 END
START -1840 -3920 22116 7449 713 -9951 END
START -1748 -4064 21620 7702 585 -9416 END
START -1716 -3796 21280 7832 905 -9051 END
START -1864 -3528 21212 7932 1382 -8643 END
START -2168 -3624 21664 8157 1680 -8271 END
START -2728 -3944 22000 8770 1779 -7859 END
START -3032 -4024 22232 9606 1807 -7174 END
START -3156 -4112 21744 10546 1919 -6555 END
START -3248 -4180 21128 11541 2350 -5975 END
START -3604 -3796 20352 12358 2620 -5265 END
START -3604 -3748 19260 12902 2631 -4669 END
START -3292 -3660 18264 13068 2628 -4240 END
START -3672 -3216 17512 13107 2702 -3924 END
START -3916 -3072 16964 12999 2862 -3538 END
START -4408 -2984 16684 12849 2885 -3081 END
START -4748 -2592 16468 12579 2666 -2294 END
START -4776 -2580 16640 12501 2682 -1409 END
START -4812 -2200 16560 12658 2899 -569 END
START -4920 -1716 16324 12863 3227 283 END
START -4676 -1516 15636 12881 3666 1123 END
START -4260 -1244 15132 12775 4189 1895 END
START -3964 -904 14532 12674 4816 2529 END
START -4012 -532 13880 12556 5225 3031 END
START -4096 -156 13280 12366 5436 3436 END
START -4328 412 12696 12044 5444 3787 END
START -4516 692 12076 11559 5329 4191 END
START -4848 968 11732 11064 5308 4756 END
START -5264 1152 11296 10623 5442 5487 END
START -5452 1480 10796 10212 5509 6376 END
START -5556 1788 10340 9778 5446 7332 END
START -5600 1924 9876 9293 5290 8264 END
START -5388 1844 9424 8858 4997 9042 END
START -5232 2004 8832 8457 4571 9707 END
START -5260 2308 8124 7997 4291 10340 END
START -5200 2740 7652 7213 3798 10995 END
START -5064 2844 7328 6362 3233 11639 END
START -4756 2708 7000 5462 2665 12412 END
START -4308 2448 6992 4673 2327 13160 END
START -3744 2276 7028 4102 2384 13857 END
START -3056 2048 7040 3604 2606 14571 END
START -2600 1860 6920 3094 3376 15279 END
START -2400 1780 6876 2808 4289 16019 END
START -2116 1740 6696 2592 4719 16826 END
START -2028 1804 6520 2284 4502 17601 END
START -1548 1760 6112 1808 3436 18287 END
START -548 1648 5800 1317 2248 18873 END
START 116 1592 5944 789 1013 19400 END
START 1792 1492 5148 286 422 19578 END
START 2532 1628 5204 -349 311 19389 END
START 3648 1524 5344 -967 533 19121 END
START 4280 1604 5564 -1253 1352 18710 END