START 6992 -2764 14764 -4597 -1189 -2828 END
START 4936 -3836 19384 -4656 -1060 -2860 END
START 7884 -2864 14632 -4531 -133 -3529 END
START 7468 -2816 15964 -4561 670 -4268 END
START 8064 -2732 15712 -4777 1164 -5198 END
START 8852 -3236 15988 -5146 1165 -6435 END
START 8984 -3412 16768 -5297 757 -7979 END
START 8900 -3940 17472 -5224 460 -9576 END
START 8508 -4432 18484 -4979 343 -11127 END
START 7716 -4652 19052 -4728 237 -12293 END
START 6836 -5072 19492 -4482 255 -13082 END
START 5668 -5160 20344 -4133 -31 -13450 END
START 5192 -5304 21208 -3550 -258 -13558 END
START 4680 -5388 21684 -2689 -99 -13524 END
START 4428 -5200 22156 -1744 -37 -13459 END
START 4380 -4940 22420 -845 61 -13486 END
START 4444 -4736 22356 -8 286 -13823 END
START 4008 -4724 22188 543 372 -14429 END
START 3404 -4632 22180 828 228 -14903 END
START 2848 -5056 22512 987 -111 -15235 END
START 2032 -5348 23272 1491 -638 -15603 END
START 1148 -5612 24140 2438 -1115 -15798 END
START 604 -5584 24304 3367 -1370 -15759 END
START 132 -5824 24176 4102 -1383 -15506 END
START -148 -5768 24152 4968 -543 -15156 END
START -632 -5800 24012 5962 144 -14945 END
START -1256 -5816 23632 6798 365 -14767 END
START -2048 -6036 23728 7411 99 -14616 END
START -2728 -6056 23736 8150 -456 -14308 END
START -3056 -6408 23652 8963 -859 -13741 END
START -3536 -5920 23604 9728 -781 -13130 END
START -3340 -5692 23188 10308 -567 -12402 END
START -3488 -5696 23232 11055 237 -11734 END
START -3676 -5924 22764 11994 1243 -11076 END
START -3972 -5932 22388 13037 1980 -10595 END
START -4540 -5804 21636 14010 2241 -10188 END
START -4968 -5212 20328 14744 2444 -9672 END
START -5620 -5196 19392 15070 2692 -8991 END
START -6104 -4904 18480 15300 3037 -8114 END
START -6984 -4668 17492 15318 3589 -7129 END
START -8028 -4356 16840 15148 4039 -5876 END
START -8804 -4104 16632 14893 4137 -4220 END
START -9216 -3952 16008 14732 4222 -2411 END
START -9536 -3624 15368 14611 4163 -555 END
START -9420 -3300 14568 14320 3795 1248 END
START -9016 -2828 13884 13722 3438 2969 END
START -8208 -2812 13368 13471 3234 4451 END
START -7120 -2580 13184 12965 3539 5624 END
START -6464 -2308 12896 12805 4362 6591 END
START -6148 -2024 12584 12870 5327 7451 END
START -5972 -1568 12316 12811 6042 8384 END
START -5548 -1196 11512 12656 6322 9189 END
START -5132 -1232 10984 12418 6378 9795 END
START -4800 -844 10224 12212 6379 10274 END
START -4672 -404 9036 11858 6322 10720 END
START -4716 -104 8332 11343 6138 11198 END
START -4940 212 7876 10736 5805 11858 END
START -4632 428 7328 10132 5344 12507 END
START -4328 776 6380 9471 4907 13238 END
START -3976 1084 5812 8684 4802 13977 END
START -3772 1344 5260 7587 4865 14703 END
START -3320 1676 4952 6428 4890 15454 END
START -2932 1608 4812 5290 5002 16235 END
START -2344 1664 4416 4215 5369 17014 END
START -1912 1660 4404 3185 5671 17722 END
START -1112 1456 4552 2300 5570 18239 END
START -484 1460 4936 1675 5270 18642 END
START 244 1528 5080 1337 4772 18807 END
START 812 1596 4888 1042 4172 18844 END
START 1448 1580 4768 733 3853 18899 END
START 2212 1756 4488 260 3764 18992 END
START 2764 1944 4480 -263 3800 19097 END
START 3336 2168 4268 -962 4012 19105 END
START 3724 2328 4152 -1827 4618 19086 END
START 3688 2716 4548 -2652 5487 19315 END
START 4140 2860 4760 -3429 5930 19589 END
START 5208 2724 5264 -4171 6077 19619 END
START 5692 2916 5312 -4920 6101 19347 END
START 6368 2776 5800 -5638 5957 19142 END
START 7316 2556 5984 -6362 5871 18732 END
START 8164 2440 6716 -7035 5508 18084 END
START 8904 2328 7552 -7401 5057 17019 END
START 9272 2180 8084 -7457 4689 15560 END
START 9160 2168 8144 -7432 4705 14143 END
START 8828 2688 8200 -7755 4989 13017 END
START 8372 2748 8492 -8410 5264 12482 END
START 8544 2804 8752 -9336 5261 12297 END
START 9132 2848 9056 -10457 4988 11999 END
START 10088 2684 10264 -11556 4191 11070 END
START 11196 2292 11352 -12137 3520 9674 END
START 12056 1996 12160 -12096 3670 7807 END
START 12368 1700 12252 -11793 4722 5600 END
START 11340 1524 12448 -11484 5589 3383 END
START 9952 1592 12852 -11556 5270 1812 END
START 8972 1412 13344 -12072 4053 1196 END
START 8796 1552 14004 -12571 2600 1048 END
START 9728 1516 14420 -12886 1639 708 END
START 10716 1344 14744 -12831 1382 -161 END
START 11504 1192 15320 -12817 1518 -1305 END
START 11760 920 15452 -12864 2451 -2784 END
START 11192 1148 15748 -12663 3956 -4227 END
START 10372 1144 15672 -12375 5388 -5490 END
START 8780 1220 15452 -12407 6653 -6253 END
START 7708 1024 15340 -12744 6990 -6378 END
START 7312 1032 15828 -13275 6443 -6381 END
START 7688 892 16536 -13694 5344 -6680 END
START 8768 564 16816 -13769 3667 -7512 END
START 9220 580 16768 -13656 2559 -8806 END
START 10252 -596 17072 -13872 3077 -10781 END
START 8616 -592 17804 -14420 2101 -13125 END
START 6252 -1168 20124 -14723 -880 -14508 END
START 5912 -2160 20968 -14294 -781 -15027 END
START 4844 -2388 22992 -13758 -1236 -15363 END
START 4924 -2712 23952 -13127 -1849 -15778 END
START 4812 -3356 25156 -11735 -1833 -15842 END
START 4592 -3392 25056 -10162 -370 -16053 END
START 3400 -3912 25300 -8945 2770 -15936 END
START 1384 -4044 25400 -7565 5626 -15252 END
START -636 -4272 25244 -6252 7127 -14544 END
START -2168 -4532 24816 -4609 6600 -13781 END
START -3228 -4856 24256 -2988 4656 -13198 END
START -4204 -4940 22712 -1718 2774 -12575 END
START -4780 -4920 21232 -1267 2054 -11676 END
START -5940 -5040 20084 -1493 2580 -10592 END
START -6916 -4924 19516 -1552 3220 -8916 END
START -7544 -5088 19512 -1276 3095 -6857 END
START -7756 -4900 19476 -807 2109 -4699 END
START -7076 -4480 19132 -162 853 -2684 END
START -5660 -4152 18336 498 -82 -1189 END