START -2512 -6028 25772 8582 -383 -13152 END
START -2796 -5960 25816 8963 -373 -13002 END
START -3500 -5992 25216 9901 -297 -12647 END
START -4472 -5632 24200 11161 -132 -11832 END
START -5268 -5420 23108 12147 -4 -10816 END
START -6172 -5156 22200 12828 194 -9624 END
START -6904 -4536 21100 13265 399 -8259 END
START -7388 -3944 19804 13379 432 -6769 END
START -7608 -3768 18800 13093 331 -5149 END
START -7528 -3476 17736 12561 291 -3468 END
START -7088 -2984 17384 12102 398 -1973 END
START -6448 -2916 17092 11698 464 -1008 END
START -6096 -3188 17264 11645 525 -484 END
START -6108 -3376 17132 12030 532 -143 END
START -6360 -3408 16880 12337 184 241 END
START -6576 -3448 16660 12677 -399 800 END
START -6712 -3620 16192 13076 -772 1681 END
START -6512 -3504 15640 13482 -317 2768 END
START -6760 -3096 14856 13920 420 4030 END
START -6804 -2952 13896 14114 1001 5422 END
START -6708 -2696 12972 14090 1459 7019 END
START -6028 -2352 11612 13725 1777 8721 END
START -5192 -2116 10644 12910 2105 10241 END
START -4136 -1828 10028 12092 2408 11444 END
START -2888 -1436 9384 11494 2784 12360 END
START -2072 -1264 9068 11104 3092 12588 END
START -1468 -960 8748 10996 3444 12567 END
START -756 -760 8012 10968 3564 12317 END
START -896 32 7460 10894 3559 12185 END
START -956 312 6736 10623 3449 12217 END
START -1036 828 5524 10015 3314 12451 END
START -768 1068 4560 8974 3305 12965 END
START -752 1228 3776 7627 3805 13711 END
START -612 1448 3120 6037 4937 14712 END
START -224 1432 2748 4388 6038 15816 END
START 524 1304 2992 2886 6490 16723 END
START 1324 1252 3344 1681 6461 17082 END
START 1848 1312 3584 603 6101 17049 END
START 2228 1180 3716 -331 5690 16986 END