START 2768 -1232 12876 1426 -1357 9 END
START 2372 -3056 12600 1115 -669 45 END
START 2292 -1144 13636 1406 -1287 -126 END
START 2776 -1432 11260 1077 -429 -160 END
START 2716 -1484 10164 599 404 -200 END
START 2728 -1448 9008 -366 917 -123 END
START 2556 -1364 8608 -1838 1020 231 END
START 3076 -1376 8400 -3573 980 802 END
START 4084 -1604 8960 -5144 1248 1355 END
START 5368 -1976 9956 -6222 2043 1812 END
START 6900 -2056 10768 -6794 2750 1988 END
START 8440 -1980 11628 -6830 3414 1571 END
START 9320 -1896 12448 -6360 3898 405 END
START 9616 -1480 12760 -5763 3851 -1091 END
START 9244 -1336 12172 -5389 3460 -2486 END
START 8524 -1296 11784 -5559 2930 -3573 END
START 7816 -992 11904 -6027 2443 -4322 END
START 7316 -1152 11836 -6650 1982 -4747 END
START 7144 -1468 11736 -7548 1704 -4835 END
START 6884 -1772 12152 -8641 1657 -4855 END
START 7020 -2152 13012 -9745 1600 -4869 END
START 7140 -2952 14456 -10534 1638 -5054 END
START 7896 -3484 16236 -10723 1710 -5563 END
START 8396 -4144 17716 -10400 1761 -6609 END
START 8540 -4568 18984 -9670 1527 -7918 END
START 8072 -4712 19992 -8968 1205 -9067 END
START 7640 -4996 20944 -8110 619 -9994 END
START 7436 -5312 21228 -7470 135 -10662 END
START 7240 -5348 22404 -6902 -155 -11170 END
START 7220 -5584 23316 -6113 -99 -11624 END
START 7008 -5784 23804 -5234 467 -12210 END
START 6424 -5844 24580 -4140 1036 -12679 END
START 5328 -5972 25172 -2801 1260 -12881 END
START 4808 -6192 25460 -1604 1201 -12990 END
START 3968 -6200 25588 -331 1083 -12935 END
START 3300 -6040 25420 1061 805 -12796 END
START 2944 -5968 24936 2168 740 -12593 END
START 2684 -6032 24132 3133 1152 -12409 END
START 2132 -5888 23592 3791 1583 -12175 END
START 1420 -6056 23244 4344 1698 -12042 END
START 520 -6076 22844 4898 1614 -11597 END
START -260 -6044 22388 5155 1565 -11008 END
START -600 -5972 22328 5293 1726 -10318 END
START -952 -6112 22560 5430 2118 -9703 END
START -1312 -5900 23352 5998 2510 -9137 END
START -1832 -5680 23808 7053 2669 -8595 END
START -2096 -5532 23920 8129 2511 -8049 END
START -2400 -5316 23768 9162 2129 -7386 END
START -2424 -4816 23048 10124 1789 -6646 END
START -2332 -4756 22220 10869 1482 -5954 END
START -2252 -4272 21424 11539 1502 -5165 END
START -2404 -3952 20368 12046 1682 -4404 END
START -2420 -3672 19148 12429 1795 -3823 END
START -2680 -3320 18052 12612 1755 -3157 END
START -3168 -2716 16884 12657 1477 -2498 END
START -3180 -2368 15976 12282 1076 -1683 END
START -2884 -2236 15512 11688 736 -1028 END
START -2588 -2036 15136 11286 522 -437 END
START -2544 -1748 15176 10967 231 -59 END
START -2484 -1896 15176 10778 114 312 END
START -2196 -1780 14724 10860 557 776 END
START -1908 -1476 14036 10922 1033 1244 END
START -1856 -1204 13408 10661 1542 1578 END
START -2096 -1012 12984 10261 2064 1930 END
START -2400 -928 12580 10000 2359 2449 END
START -2692 -680 12176 9661 2437 3160 END
START -2648 -640 12056 9250 2553 3769 END
START -2984 -532 12208 9225 2745 4317 END
START -2952 -424 11716 9449 3001 4981 END
START -3108 -580 10972 9537 3094 5497 END
START -3116 -320 10488 9561 3037 6038 END
START -3104 56 9408 9331 2991 6603 END
START -3056 104 8856 9066 2812 7056 END
START -2924 248 7880 8648 2383 7571 END
START -2888 600 7016 7876 1838 8025 END
START -2860 868 6632 6947 1333 8530 END
START -2804 1108 6228 6013 981 9072 END
START -2776 1076 6272 5100 800 9692 END
START -2492 1432 6412 4294 736 10417 END
START -2264 1408 6528 3675 666 11056 END
START -1388 1308 6936 3270 352 11693 END
START -660 1364 7012 3179 -29 12429 END
START 564 1780 6516 2748 -633 12829 END
START 1576 1876 6404 2003 -1124 12929 END
START 2128 2028 6648 1446 -1310 13069 END
START 2620 1916 7320 972 -1403 13179 END
START 4064 2060 7176 606 -1145 13436 END
START 4988 2112 7444 455 -525 13320 END
START 5416 2276 7644 568 298 13048 END
START 5484 2392 7876 682 813 12708 END
START 5064 2532 7704 576 994 12579 END
START 5120 2608 7652 314 995 12893 END
START 5716 2692 7296 37 1403 13191 END
START 5932 2544 7048 -288 2052 13259 END
START 6312 2612 6856 -797 2585 13371 END
START 7040 2468 6816 -1461 2842 13530 END
START 7668 2332 6912 -2138 3033 13315 END
START 8352 2344 7136 -2871 3117 12993 END
START 8904 2284 7552 -3487 3286 12235 END
START 8864 2220 7892 -4130 3729 11558 END
START 8236 2460 8736 -4700 3828 10918 END
START 8032 2300 9112 -5018 3437 10477 END
START 7564 2232 9712 -5296 2710 10216 END
START 7712 2012 9424 -5716 1856 10380 END
START 8548 1552 9152 -6602 1370 10697 END
START 9760 1244 9332 -7780 1337 10774 END
START 11160 752 10132 -8941 1890 10541 END
START 12360 472 11664 -9655 2996 9664 END
START 12292 248 12280 -9559 4828 8147 END
START 10760 284 13188 -9028 6120 6814 END
START 8868 396 13544 -8708 5852 6103 END
START 8700 316 12940 -8794 4750 5881 END
START 8424 512 13096 -9176 3855 5476 END
START 8700 480 12888 -9649 3177 5325 END
START 9564 -8 12776 -10136 3215 5235 END
START 10524 -312 13320 -10657 3777 4920 END
START 11860 -544 13776 -11179 4583 4022 END
START 12100 -620 14944 -11294 5478 2622 END
START 11268 -436 16296 -10872 5078 1138 END
START 10464 -824 17184 -10424 4496 -183 END
START 9116 -268 16256 -10006 4525 -722 END
START 9084 -1160 15880 -9806 5606 -1189 END
START 8744 -896 15712 -9911 6275 -1378 END
START 8628 -1452 15580 -9965 6197 -1325 END
START 9280 -1804 15792 -10142 5899 -1881 END
START 9028 -1496 16324 -10544 2016 -3105 END
START 9644 -2100 17396 -10202 1440 -3953 END
START 9732 -1832 18144 -9874 1908 -5080 END
START 9812 -2028 18296 -9927 2870 -6254 END
START 9076 -2276 19292 -9312 3819 -7156 END
START 8192 -2204 19388 -8339 4555 -7737 END
START 7372 -2036 19300 -7769 4732 -7990 END
START 7016 -2028 18872 -7509 4453 -8116 END
START 6988 -2140 18508 -7532 4137 -8249 END
START 6896 -2136 18552 -7722 3779 -8581 END
START 7424 -2228 18792 -8041 3692 -8972 END
START 7516 -2612 19852 -7997 3920 -9666 END
START 7196 -3096 20292 -7468 4276 -10626 END
START 5952 -3532 20648 -6815 4064 -11656 END
START 4316 -3700 21172 -6109 3183 -12324 END
START 3020 -4044 21636 -5358 2233 -12405 END
START 2076 -4032 21452 -4479 1544 -12175 END
START 1508 -3944 21488 -3635 981 -11657 END
START 1604 -3856 21292 -2869 746 -11134 END
START 1744 -3712 20656 -2240 937 -10888 END
START 1548 -3856 19936 -1841 1468 -10734 END
START 864 -4012 19420 -1472 1856 -10750 END
START -260 -3992 19584 -1041 1488 -10603 END
START -1220 -3800 19408 -427 548 -10146 END
START -1444 -4072 18532 -24 -316 -9555 END
START -1688 -4204 18040 122 -559 -8996 END
START -1968 -4372 17552 104 -179 -8286 END
START -2296 -4656 17396 107 392 -7542 END
START -2372 -4800 17692 259 548 -6855 END
START -2528 -4820 17436 551 381 -6203 END
START -2356 -4824 17324 741 175 -5677 END
START -2084 -4692 17400 998 147 -5245 END
START -1792 -4684 16960 1392 575 -4679 END
START -1732 -4496 16592 1617 1246 -3970 END