START 2364 -940 11220 -1082 -264 141 END
START 804 -2876 13476 -1370 -13 162 END
START 1964 -1248 11220 -1541 -558 -149 END
START 2000 -600 10940 -2631 -904 38 END
START 2756 -696 10544 -3708 -1030 301 END
START 4276 -704 10424 -4802 -676 638 END
START 5640 -336 11052 -5831 339 544 END
START 6824 -588 11064 -6951 1786 52 END
START 7948 -1076 11624 -8194 3294 -715 END
START 8672 -1516 13204 -9318 3979 -1880 END
START 9148 -2248 16100 -9971 2613 -3270 END
START 9544 -2432 17124 -9835 1290 -4409 END
START 10616 -3616 19048 -9097 1480 -5907 END
START 11268 -3688 20800 -8001 1524 -8100 END
START 11296 -4312 21956 -6434 2374 -10125 END
START 10328 -4620 22784 -4582 2887 -12053 END
START 8516 -4556 22440 -3091 3485 -13595 END
START 6708 -4664 22832 -2134 3179 -14253 END
START 5340 -4724 23012 -1558 2167 -14234 END
START 4396 -4740 23776 -936 865 -14135 END
START 4220 -4884 24548 -201 -77 -14215 END
START 3676 -5044 25292 676 -538 -14363 END
START 2980 -5320 26292 1836 -949 -14555 END
START 2088 -5552 27260 3499 -1496 -14842 END
START 1280 -5604 26984 5326 -1908 -14960 END
START 172 -5628 26520 6685 -2165 -14909 END
START -680 -5412 26272 7785 -2738 -14508 END
START -1224 -5156 25796 8780 -3299 -14090 END
START -1716 -4900 25312 9627 -3876 -13699 END
START -2004 -4544 24784 10211 -4145 -13334 END
START -2776 -4112 24844 10735 -4105 -12973 END
START -2720 -4096 24172 11430 -3665 -12526 END
START -3660 -3988 24088 12272 -3393 -12313 END
START -4868 -3724 23456 12996 -3773 -11855 END
START -5504 -3584 22748 13344 -4299 -11090 END
START -6000 -3668 22600 13905 -4712 -10288 END
START -6260 -3516 21920 14527 -4620 -9420 END
START -6612 -3280 20636 14988 -4343 -8504 END
START -7000 -3240 19700 14990 -4132 -7401 END
START -7408 -3088 19000 15174 -3852 -6157 END
START -7404 -3040 17824 15222 -3584 -5012 END
START -7748 -3052 17028 14833 -3465 -4133 END
START -8108 -3564 16328 14285 -3420 -3105 END
START -8656 -4060 16280 14113 -3182 -2086 END
START -9636 -4044 16236 14125 -3038 -772 END
START -10412 -4064 15988 14558 -3092 868 END
START -10560 -4056 15012 15184 -3317 2861 END
START -9840 -3876 13140 15430 -3195 5005 END
START -9004 -3608 11460 15307 -2556 7009 END
START -8120 -3104 10044 15047 -1786 8805 END
START -7292 -2728 8484 14570 -1414 10504 END
START -6364 -2284 7164 13787 -1470 11952 END
START -5280 -2080 5992 13422 -1562 13180 END
START -4496 -1856 4696 12680 -1043 14169 END
START -3772 -1380 3616 11974 -247 15068 END
START -3080 -684 2124 10967 860 15952 END
START -2640 -228 816 9397 1907 16774 END
START -2012 -20 0 7469 2632 17692 END
START -1424 300 -200 5455 2860 18440 END
START -492 192 -24 3589 3060 19247 END
START 948 296 308 2114 3180 19949 END
START 2696 -20 804 868 3395 20136 END
START 4000 -120 1260 -147 4132 20046 END
START 5232 -68 2256 -794 5164 19739 END
START 6124 32 2752 -1131 6012 19276 END
START 6792 164 2908 -1532 6923 18676 END
START 7256 636 3300 -1965 7722 17930 END
START 7324 492 3176 -2356 8493 17052 END
START 6576 324 3000 -2993 9370 16521 END
START 6156 372 2772 -4033 9832 16435 END
START 6668 292 3316 -5253 9756 16549 END
START 7516 284 3852 -6254 9560 16182 END
START 8284 280 4272 -7235 9259 15568 END
START 8820 428 4656 -8167 9032 14834 END
START 9792 320 5052 -9182 9091 13962 END
START 10548 240 5092 -10032 10050 12926 END
START 10820 488 5048 -10666 11920 11338 END
START 10140 1072 4444 -11507 13714 9467 END
START 8044 1208 4996 -13278 13971 7684 END
START 6904 1204 6628 -15817 10791 7235 END
START 8620 560 8424 -18233 7070 7544 END
START 11272 -240 11040 -19652 5182 7101 END
START 13940 -708 13020 -20206 5692 6177 END
START 16324 -1576 14888 -19956 8529 4650 END
START 17196 -1744 16424 -18915 11805 2344 END
START 16860 -1504 17100 -17927 14097 -275 END
START 15068 -1816 17228 -17485 14682 -2846 END
START 13432 -2052 17500 -17552 13353 -4700 END
START 12784 -2276 17536 -17683 12027 -6039 END
START 12108 -2648 18368 -17602 11246 -7446 END
START 11756 -3040 18908 -16958 10803 -8784 END
START 12872 -4564 21616 -16305 9754 -10521 END
START 11324 -4088 19648 -15390 5826 -12400 END
START 10224 -6752 22428 -14408 6084 -15000 END
START 8696 -6112 22840 -13740 4693 -18087 END
START 5904 -7140 24872 -12811 4038 -19522 END
START 3532 -7944 25524 -11325 4245 -20019 END
START 884 -8316 25760 -9963 5550 -19306 END
START -1240 -8984 25896 -8469 6656 -18024 END
START -2912 -8872 25664 -7060 6860 -16656 END
START -3816 -8692 24784 -6149 6292 -15700 END