START 860 4772 3064 -2901 -655 950 END
START 1520 4468 1792 -3222 -635 1189 END
START 676 4752 3532 -3465 -793 1257 END
START 1172 4972 3188 -4426 -1105 1679 END
START 1240 5144 3324 -5526 -1621 2008 END
START 1564 5172 3424 -6741 -2187 2349 END
START 2340 5104 3724 -8110 -2441 2542 END
START 2912 4904 4136 -9461 -2356 2517 END
START 3104 4460 5068 -10576 -2057 2446 END
START 3624 4000 5876 -11671 -1913 2346 END
START 3820 3592 7232 -12699 -1848 2149 END
START 4004 3172 8460 -13319 -1491 1905 END
START 4100 2696 9508 -13736 -994 1569 END
START 4244 1976 10600 -14018 -475 1289 END
START 4004 1224 11944 -13970 -49 1035 END
START 3652 880 12876 -13679 181 710 END
START 3532 328 13836 -13390 253 463 END
START 3248 116 14264 -13004 200 256 END
START 3168 -152 14560 -12753 199 197 END
START 3036 -320 14868 -12587 479 178 END
START 2792 -384 15200 -12374 844 253 END
START 2580 -336 15008 -12300 1371 427 END
START 2480 -448 15136 -12489 1938 669 END
START 2236 -800 15888 -12607 2041 946 END
START 2564 -1068 16272 -12514 1832 1086 END
START 3052 -1476 16732 -12171 1719 961 END
START 3080 -1700 16848 -11599 1772 637 END
START 2952 -1704 16680 -11098 2061 370 END
START 2736 -1788 16384 -10934 2256 172 END
START 2348 -1724 16496 -10879 1965 0 END
START 2000 -1536 17112 -10912 1273 -126 END
START 1968 -1840 17660 -10890 368 -184 END
START 2100 -1912 18012 -10570 -418 -148 END
START 2272 -2168 18376 -10249 -1101 -78 END
START 2432 -2148 18660 -10213 -1337 113 END
START 2940 -2236 18700 -10427 -1171 311 END
START 3148 -2424 19240 -10822 -384 472 END
START 3332 -2776 20348 -10925 463 712 END
START 3440 -2772 21416 -10664 1321 1026 END
START 3656 -2940 22400 -9896 1912 1055 END
START 3844 -2928 23044 -8920 1960 891 END
START 3756 -2964 23340 -8167 1420 710 END
START 4000 -3024 23848 -7562 421 599 END
START 4540 -3088 24632 -7143 -242 420 END
START 4996 -3264 25368 -6623 -257 67 END
START 5196 -3468 25892 -6048 231 -332 END
START 5020 -3280 26440 -5373 961 -554 END
START 4656 -3308 27136 -4719 1493 -616 END