START 3064 5288 12308 204 -806 -417 END
START 1868 3888 13968 205 -854 -296 END
START 2656 5204 12636 402 -970 -565 END
START 3572 5420 11144 304 -793 -811 END
START 3156 5316 10588 155 -611 -1111 END
START 2976 5288 9448 -107 -491 -1336 END
START 2600 5120 8688 -628 -195 -1475 END
START 2236 5104 7860 -1050 347 -1522 END
START 1740 4588 6912 -1371 959 -1515 END
START 1168 4148 6304 -1898 1105 -1278 END
START 496 3792 5764 -2651 822 -653 END
START 424 3644 5048 -3730 469 204 END
START 796 3424 4784 -5147 166 1180 END
START 1180 3476 5156 -6637 95 2152 END
START 1688 3720 6392 -7564 357 2923 END
START 2428 3560 7152 -7974 654 3338 END
START 3448 3156 7432 -8107 983 3342 END
START 4220 2808 7512 -8213 1415 3010 END
START 4480 2528 7400 -8422 1910 2366 END
START 4572 2208 7316 -8758 2250 1701 END
START 4376 1772 7456 -9162 2401 966 END
START 3928 1040 7860 -9630 2273 339 END
START 3092 236 8616 -9953 2053 -19 END
START 2420 -244 8996 -10066 2141 19 END
START 1920 -352 8772 -10422 2511 363 END
START 1584 -120 8884 -11061 2772 840 END
START 1704 -268 9156 -11720 2818 1292 END
START 2732 -692 9436 -12599 2877 1391 END
START 2820 -988 10704 -13311 2825 880 END
START 2708 -1244 11980 -13357 2560 146 END
START 2280 -1724 12336 -12930 2601 -477 END
START 1292 -1264 12648 -12601 2873 -778 END
START 300 -1460 12840 -12552 2909 -396 END
START 312 -1556 12652 -12922 2607 434 END
START 676 -1364 13200 -13810 2439 1267 END
START 1552 -1708 13940 -14640 2360 1755 END
START 2600 -1960 15020 -15182 2759 1883 END
START 3008 -2228 16624 -15461 3178 1628 END
START 2724 -2676 18896 -15044 2977 1079 END
START 2264 -2820 20348 -13783 2210 581 END
START 1364 -2360 21680 -12306 854 361 END
START 1468 -2348 21900 -10953 -943 389 END
START 2008 -2124 21716 -10350 -1996 615 END
START 2484 -1988 22276 -10012 -2023 882 END
START 3348 -2032 22620 -9683 -1563 1280 END
START 4148 -2032 23084 -9772 -584 1510 END
START 4772 -2100 23944 -9852 279 1331 END