START 9052 2264 12568 2618 -4224 651 END
START 7004 1464 16752 2398 -4389 425 END
START 9208 2216 12592 2210 -4046 -349 END
START 9020 2148 12856 1323 -3543 -1265 END
START 9232 1852 12860 528 -2939 -1980 END
START 9056 1368 13148 113 -2207 -2447 END
START 8528 1288 13632 104 -1572 -2728 END
START 8264 1172 14136 265 -1290 -2772 END
START 8200 1060 14472 365 -1222 -2685 END
START 8692 1100 14888 705 -883 -2570 END
START 9092 1092 14768 1267 -300 -2818 END
START 8888 1272 14992 1901 451 -3161 END
START 9848 996 13252 2210 1376 -3792 END
START 8620 1612 14012 2359 1209 -4089 END
START 8908 1208 13016 2229 -161 -4560 END
START 8956 1504 12640 2035 -1220 -5213 END
START 8956 1744 12808 1827 -1897 -5850 END
START 9000 1800 12100 1435 -1550 -6351 END
START 8800 1820 12196 1135 -940 -6757 END
START 8644 1728 12072 1100 -517 -7117 END
START 8248 1776 11636 917 -220 -7531 END
START 7676 1812 11284 669 134 -7871 END
START 6956 1760 11196 354 323 -7997 END
START 6348 1764 11516 111 223 -8010 END
START 6148 1972 11744 -143 -64 -8001 END
START 5996 2132 11924 -323 -392 -8069 END
START 6156 2224 11936 -340 -662 -8311 END
START 6052 2192 11624 -356 -671 -8517 END
START 5784 2544 11832 -572 -476 -8757 END
START 5552 2604 11676 -658 -126 -8861 END
START 5400 2624 11420 -777 274 -8990 END
START 5064 2668 11124 -1059 570 -9109 END
START 4520 3044 11428 -1428 714 -9154 END
START 4264 3116 11480 -1790 862 -9198 END
START 4032 3092 11736 -2000 836 -9146 END
START 3648 3144 11736 -1963 745 -9117 END
START 3588 3340 11748 -1812 603 -9122 END
START 3396 3288 11708 -1638 500 -9037 END
START 2972 3368 11148 -1589 358 -9015 END
START 2812 3464 10592 -1765 312 -8980 END
START 2632 3492 9896 -2162 352 -8972 END
START 2048 3400 9792 -2862 372 -9113 END
START 1420 3332 9824 -3596 36 -9147 END
START 976 3160 10188 -4240 -400 -8959 END
START 332 3180 10724 -4680 -845 -8705 END
START 68 2948 11236 -4712 -1291 -8221 END
START 276 2636 11448 -4632 -1417 -7716 END
START 488 2608 11292 -4658 -1214 -7432 END
START 320 2392 11488 -4705 -916 -7269 END
START 8 2208 11560 -4695 -650 -7167 END
START -404 1884 11692 -4732 -758 -7163 END
START -1100 1580 11948 -4683 -1299 -7166 END
START -1560 1260 11792 -4658 -2196 -6973 END
START -1740 768 11632 -5177 -2870 -6639 END
START -2088 724 11800 -5710 -2950 -6031 END
START -2104 888 12760 -6033 -2416 -5220 END
START -2004 956 13328 -5980 -1332 -4675 END
START -2432 1128 13676 -5758 -132 -4156 END
START -2992 980 13920 -5572 623 -3548 END
START -3280 844 13736 -5563 787 -3035 END
START -3428 740 13428 -5977 599 -2527 END
START -3312 720 13732 -6547 181 -2044 END
START -2996 760 14500 -7013 -324 -1777 END
START -2912 528 15372 -6957 -768 -1728 END
START -3252 360 15400 -6698 -685 -1567 END
START -3672 204 15612 -6824 -569 -1086 END
START -3752 8 16036 -6937 -375 -467 END
START -3820 -112 16592 -6823 -27 132 END
START -3872 -80 16896 -6642 458 805 END
START -3460 -276 17608 -6658 412 1516 END
START -2704 -456 18608 -6440 19 1854 END
START -2088 -784 19664 -5880 -728 1813 END
START -1548 -1116 20780 -4750 -1543 1591 END
START -820 -1432 21848 -3177 -2322 1285 END
START -416 -1676 21916 -1155 -2384 734 END
START -1112 -1308 20908 842 -1761 90 END
START -2612 -936 19392 1918 -1111 297 END
START -4260 -332 17480 1806 -344 1705 END
START -5256 220 16296 967 168 3701 END
START -5380 520 15568 -401 516 5709 END
START -4740 552 15692 -1978 733 7643 END
START -3264 428 16960 -3224 482 9083 END
START -1892 232 18416 -3414 -185 9601 END
START -924 72 19740 -2627 -1278 9684 END
START -160 24 19836 -1428 -2275 9792 END
START 516 244 19060 -315 -2829 10024 END
START 1036 776 17844 123 -2700 10428 END
START 1696 1004 16932 98 -2086 11056 END
START 2336 1300 16304 -188 -981 11534 END
START 2864 1496 15932 -763 151 11887 END
START 3456 1436 15848 -1440 1146 11846 END
START 3632 1424 16312 -1882 1823 11706 END
START 3748 1492 16848 -1893 1605 11348 END
START 3912 1128 16964 -1720 975 10932 END
START 4008 916 17116 -1661 279 10679 END
START 4236 740 17568 -1484 -335 10682 END
START 4808 640 17488 -1128 -411 10718 END
START 5348 592 16784 -883 172 10633 END
START 5788 512 16568 -816 939 10369 END
START 6368 612 16288 -833 1531 9922 END
START 6512 632 16180 -946 1931 9264 END
START 6436 608 16132 -964 1957 8561 END
START 6088 728 16088 -1180 1775 7987 END
START 5964 484 16636 -1323 1287 7698 END
START 6256 84 17340 -1203 794 7594 END
START 6900 -52 17776 -882 719 7524 END
START 7608 -20 17708 -441 1199 7415 END
START 8292 36 17356 35 1968 7097 END
START 8812 188 16948 283 2715 6645 END
START 9312 164 16412 255 3302 6023 END
START 9824 412 16156 136 3563 5341 END
START 10160 476 15752 140 3689 4549 END
START 10400 540 15624 119 3540 3654 END
START 10540 476 15380 -29 3045 2787 END
START 10716 348 15636 -284 2143 1795 END
START 10860 240 15832 -376 1494 695 END
START 10612 24 16096 -199 1090 -343 END
START 10116 -192 16344 156 524 -1236 END
START 9676 -352 15988 501 -70 -1895 END
START 9448 -336 15396 655 -413 -2419 END
START 9092 -364 14932 501 -517 -2868 END
START 8704 -336 14648 179 -631 -3315 END
START 8616 -392 14540 -175 -661 -3698 END
START 8468 -400 14240 -618 -755 -4170 END
START 8424 -348 14396 -1072 -1057 -4760 END
START 8196 -464 15012 -1257 -1569 -5497 END
START 7908 -716 15848 -1047 -2353 -6172 END
START 7752 -644 16140 -726 -3167 -6893 END
START 7608 -676 16380 -378 -3616 -7504 END
START 7408 -764 16016 -81 -3495 -8040 END
START 7312 -708 15620 -133 -2967 -8376 END
START 7028 -624 15288 -559 -1974 -8618 END
START 6512 -580 15692 -875 -1016 -8790 END
START 6060 -716 16020 -879 -486 -8981 END
START 5604 -668 15840 -888 -538 -9079 END
START 5128 -560 16060 -1074 -842 -9124 END
START 5080 -556 16028 -1093 -1319 -9101 END
START 5416 -444 16020 -949 -1538 -9128 END
START 5524 -452 16044 -816 -1321 -9383 END
START 5704 -572 16120 -756 -1014 -9776 END
START 5660 -384 15888 -593 -150 -10304 END
START 5032 -600 15888 -496 993 -10766 END
START 4232 -624 15744 -422 1656 -10917 END
START 3292 -664 15780 -416 1820 -10839 END
START 2664 -456 15788 -305 1297 -10566 END
START 2312 -420 15880 -121 297 -10345 END
START 2268 -264 15620 76 -701 -10281 END
START 2248 4 15160 267 -1497 -10300 END
START 2396 180 14584 304 -1917 -10411 END
START 2156 364 13912 55 -1747 -10539 END
START 1708 536 13400 -469 -1238 -10598 END
START 1212 548 13616 -1155 -990 -10493 END
START 372 392 14196 -1697 -932 -10213 END
START -24 296 14416 -1664 -875 -9866 END
START -200 24 14236 -1772 -764 -9542 END
START -716 -308 14372 -2140 -379 -9238 END
START -1432 -200 14412 -2433 142 -8764 END
START -1952 -536 14456 -2720 622 -8253 END
START -2276 -776 14712 -3100 1026 -7709 END
START -2828 -972 15140 -3505 1521 -7059 END
START -2924 -1268 15140 -3652 1981 -6360 END