START 10376 1760 12472 4396 -2901 1849 END
START 8820 808 15652 4410 -3216 1771 END
START 10624 1660 13132 4541 -2951 1140 END
START 11236 2016 12772 4697 -2993 273 END
START 11132 2052 13264 4885 -2943 -479 END
START 11280 1876 12908 4994 -3117 -1228 END
START 11556 1976 12588 4708 -3419 -1849 END
START 11852 2088 11568 4377 -2001 -2042 END
START 12640 1808 11448 3773 -850 -2816 END
START 12324 2692 11376 3183 -348 -3471 END
START 12064 2356 11800 2969 -81 -3855 END
START 11648 2328 11816 2988 -285 -4267 END
START 11564 2396 11504 2867 -1085 -4716 END
START 11804 2260 11344 2578 -2215 -5375 END
START 11924 2620 11140 2413 -3124 -6227 END
START 12036 2560 10576 2365 -3254 -7125 END
START 12004 2544 9576 2192 -2493 -7876 END
START 11344 2864 9112 1595 -1358 -8317 END
START 11236 2324 8112 801 -435 -8707 END
START 10352 2652 8680 323 1172 -8852 END
START 9400 2680 9072 -122 1209 -8806 END
START 9020 2788 9260 -580 426 -8979 END
START 8736 2992 9060 -724 -159 -9344 END
START 8436 3160 9012 -913 -303 -9680 END
START 8112 3104 8848 -1113 -151 -9951 END
START 7828 3080 8312 -1534 440 -10060 END
START 7228 3032 8384 -2340 979 -10111 END
START 6832 2812 8356 -3034 1158 -10229 END
START 6020 2708 8628 -3449 911 -10382 END
START 5432 2756 8960 -3869 534 -10582 END
START 4720 2644 8940 -4192 498 -10702 END
START 3888 2672 9320 -4181 438 -10653 END
START 3404 2652 9156 -4081 129 -10570 END
START 2748 2644 8908 -4191 -305 -10457 END
START 2408 2796 8932 -4404 -712 -10227 END
START 2044 2680 8556 -4867 -917 -9997 END
START 1460 2896 8608 -5426 -1024 -9721 END
START 876 3076 8200 -6197 -789 -9223 END
START 568 2752 8356 -6955 -590 -8640 END
START 272 2632 8892 -7754 -558 -8052 END
START 156 2288 9668 -8257 -774 -7656 END
START 372 1640 10200 -8385 -1045 -7207 END
START 416 1668 10728 -8378 -1077 -6708 END
START 572 1796 10744 -8485 -821 -6424 END
START 484 1664 11140 -8604 -514 -6297 END
START 288 1532 11360 -8629 -238 -6274 END
START -220 1528 11736 -8600 -246 -6379 END
START -1176 1428 11760 -8436 -538 -6641 END
START -2732 1176 11632 -8332 -963 -6688 END
START -4264 1348 11296 -8731 -964 -6126 END
START -5436 1040 11308 -9558 -847 -5123 END
START -6476 816 12384 -10326 -1277 -3998 END
START -6788 572 13696 -11127 -2501 -2685 END
START -6520 64 15436 -11594 -4062 -1246 END
START -5544 -304 17076 -11672 -4884 126 END
START -4296 -768 18812 -11140 -4887 1194 END
START -3128 -1068 20344 -9948 -4185 1843 END
START -2960 -1052 21268 -8382 -3045 2273 END
START -3320 -832 21832 -6837 -2263 2911 END
START -3804 -688 21908 -5515 -1636 3809 END
START -4112 -508 21180 -4671 -1070 5057 END
START -3776 -596 20908 -4275 -962 6393 END
START -3344 -612 20872 -4028 -665 7685 END
START -2684 -912 20936 -3608 -267 8788 END
START -2100 -992 20960 -2959 104 9464 END
START -1768 -968 20684 -2311 382 9939 END
START -1536 -764 20504 -1812 627 10367 END
START -1872 -368 20076 -1397 750 10883 END
START -1644 -396 19148 -1326 921 11846 END
START -1276 -448 18808 -1662 1194 12807 END
START -324 -480 18524 -1945 1481 13781 END
START 732 -692 18728 -2125 1556 14519 END
START 2536 -1004 19184 -2119 1240 14996 END
START 3964 -1020 19752 -1591 898 14978 END
START 5200 -1016 19788 -851 636 14787 END
START 6356 -1216 19332 -155 803 14516 END
START 7336 -1144 18812 408 1657 14063 END
START 8188 -1044 17992 864 2973 13575 END
START 8628 -1108 16844 1111 4160 12894 END
START 8812 -1100 16360 874 4538 11927 END
START 8680 -872 16056 436 4373 11226 END
START 8488 -924 16544 298 3647 10435 END
START 8640 -908 16452 397 2924 9975 END
START 8844 -800 16560 647 2783 9655 END
START 9824 -1000 15796 890 3052 9263 END
START 10476 -732 15016 900 3677 8508 END
START 10432 -572 14736 871 4140 7652 END
START 10760 -492 14220 606 4150 6920 END
START 11000 -76 13340 -34 3947 6303 END
START 11192 -20 13180 -1013 3297 5584 END
START 11864 52 13076 -2293 2753 4972 END
START 12492 132 14052 -3318 2456 4363 END
START 13024 64 14844 -3806 2336 3443 END
START 13648 44 15748 -3792 2324 2301 END
START 13864 -108 16484 -3242 2260 1005 END
START 14104 -272 16584 -2574 1811 -402 END
START 14336 -152 16340 -2153 1117 -1878 END
START 14660 -272 15972 -2085 771 -3473 END
START 14336 -380 16024 -2286 934 -4808 END
START 13948 -412 16300 -2598 1371 -5919 END
START 13520 -848 16776 -2901 1969 -6954 END
START 12696 -1148 17460 -3054 2825 -7824 END
START 12056 -1744 18000 -2793 3895 -8517 END
START 11544 -2280 18868 -2308 4400 -9315 END
START 10924 -2488 19572 -1576 3948 -10238 END
START 10452 -2900 19848 -506 2634 -11262 END
START 10352 -2724 19852 564 932 -12428 END
START 10372 -2904 19248 1546 -522 -13785 END
START 10044 -2804 17892 2100 -1066 -15056 END
START 9148 -2796 16712 1953 -871 -15952 END
START 7928 -2944 16200 1404 -206 -16326 END
START 6588 -3036 16124 908 742 -16214 END
START 5644 -2928 16208 732 1555 -16085 END
START 4692 -2996 16112 846 1787 -16041 END
START 3276 -2804 15916 1045 1505 -15851 END
START 2032 -2628 15380 1282 692 -15456 END
START 1452 -2468 14356 1096 -255 -14792 END
START 1820 -2320 13704 568 -1177 -14274 END
START 2044 -2056 13516 33 -1488 -14446 END
START 2140 -2108 13816 -407 -1606 -14941 END
START 1284 -2316 14472 -654 -1483 -15431 END
START -248 -2372 15192 -480 -1179 -15624 END
START -1916 -2384 15292 -183 -1209 -15329 END
START -3412 -2276 15208 12 -1493 -14333 END
START -4416 -2024 14672 -240 -1712 -13015 END
START -5112 -1848 14620 -1006 -1712 -11381 END
START -5264 -1872 15024 -1591 -1830 -9624 END
START -4716 -2112 15680 -1810 -2010 -8155 END
START -3780 -2260 16496 -1724 -2138 -7289 END
START -3244 -2120 17048 -1074 -1919 -7059 END
START -3648 -1960 16776 -329 -1872 -6887 END
START -4504 -1788 16324 2 -2054 -6155 END
START -4948 -1464 15780 -45 -2097 -5016 END
START -4948 -1384 15508 -326 -1865 -3678 END
START -4652 -1352 15312 -628 -1583 -2313 END
START -4196 -1188 15620 -877 -1307 -1036 END
START -3408 -1056 16200 -795 -1057 -6 END
START -2400 -884 16096 -630 -956 572 END
START -1500 -656 16316 -464 -899 860 END
START -980 -272 16184 -103 -664 881 END
START -796 -116 15628 223 -167 949 END
START -788 196 15220 156 261 1247 END
START -580 644 14656 -190 501 1545 END
START -180 816 14652 -749 661 1802 END
START 344 804 14716 -1268 667 1945 END