START 6012 680 15588 -794 205 989 END
START 5584 -536 16136 -961 311 994 END
START 6204 572 16652 -783 103 769 END
START 6604 564 16376 -750 -102 604 END
START 7376 580 16448 -633 -199 315 END
START 7676 520 17108 -336 -211 53 END
START 8328 652 17112 -18 -107 -192 END
START 8932 548 16892 397 16 -644 END
START 9288 372 16612 823 119 -1201 END
START 9208 416 16640 1351 272 -1677 END
START 9352 348 16532 1927 139 -2162 END
START 9512 308 15672 2380 -195 -2750 END
START 9536 164 15100 2541 -657 -3400 END
START 9540 372 14272 2505 -905 -3909 END
START 9620 244 13456 2159 -773 -4396 END
START 9628 208 12904 1829 -502 -4893 END
START 9208 292 12856 1479 -200 -5337 END
START 8904 288 12780 1208 71 -5648 END
START 8404 232 12632 1215 279 -5969 END
START 8032 336 12368 1231 467 -6334 END
START 7628 396 12044 1164 658 -6652 END
START 7184 348 11620 1109 920 -6949 END
START 6764 296 10944 774 1246 -7182 END
START 6612 344 10572 338 1565 -7347 END
START 6124 476 10664 -117 1916 -7637 END
START 5584 620 10652 -640 2103 -7849 END
START 4800 584 10828 -979 2115 -8034 END
START 4072 584 11168 -1040 1844 -8253 END
START 3344 436 11280 -1119 1475 -8296 END
START 2720 508 11648 -1194 978 -8201 END
START 2424 796 11272 -1165 561 -8086 END
START 2216 1044 10856 -1403 400 -7920 END
START 1968 1196 10424 -1919 227 -7797 END
START 1992 1140 10188 -2581 127 -7850 END
START 1484 1052 10552 -3496 -69 -7907 END
START 760 904 11720 -4096 -816 -7836 END
START 332 908 12568 -4230 -1127 -7709 END
START -352 768 12880 -4101 -931 -7430 END
START -800 668 12700 -4054 -592 -6892 END
START -1296 560 12412 -4310 -412 -6231 END
START -1416 292 12372 -4732 -639 -5498 END
START -1236 344 12688 -5325 -1035 -4835 END
START -960 208 13304 -5842 -1405 -4431 END
START -884 168 14248 -5943 -1596 -4234 END
START -1032 96 14748 -5802 -1284 -4019 END
START -1380 76 15240 -5572 -855 -3759 END
START -1968 -112 15336 -5251 -965 -3439 END
START -2272 40 15420 -5044 -1165 -2912 END
START -2460 116 15560 -4967 -1294 -2398 END
START -2672 28 15872 -4951 -1255 -2049 END
START -2820 -64 16180 -4784 -1345 -1722 END
START -3252 -84 16560 -4649 -1711 -1581 END
START -4020 -252 16856 -4374 -1893 -1229 END
START -4460 -420 16972 -4387 -1717 -549 END
START -5084 -840 17432 -4458 -1411 473 END
START -5476 -1404 17828 -4205 -1081 1620 END
START -5660 -1652 18436 -3997 -921 2965 END
START -5584 -1864 18784 -3646 -1052 4245 END
START -4856 -1968 19308 -3034 -1129 5516 END
START -3712 -1496 19588 -2383 -1196 6364 END
START -3380 -1436 19616 -1643 -997 6924 END
START -2984 -1364 19160 -949 -713 7567 END
START -2468 -1328 18532 -521 -533 8331 END
START -1980 -1156 17780 -396 -29 9075 END
START -1476 -988 17092 -694 750 10011 END
START -816 -1008 17188 -1085 1163 11059 END
START 308 -840 17548 -1409 1594 11992 END
START 1404 -716 17740 -1449 2048 12672 END
START 2652 -748 17880 -1397 2256 12970 END
START 3904 -732 18400 -1282 2176 13047 END
START 5476 -512 18368 -810 1959 12717 END
START 6852 -544 18228 -397 1561 12311 END
START 7964 -616 18120 -178 1224 11728 END
START 9300 -612 17856 -41 1000 11236 END
START 10120 -500 17880 24 971 10640 END
START 11092 -540 17956 82 840 10120 END
START 12136 -736 18108 190 728 9568 END
START 13400 -744 18176 377 529 8900 END
START 14472 -796 18192 666 508 8024 END
START 15368 -852 18116 919 510 6930 END
START 16052 -928 18200 1251 228 5751 END
START 17032 -1128 18196 1567 -67 4464 END
START 17828 -1064 18100 1952 -88 2909 END
START 17028 -576 18092 2443 23 1527 END
START 17808 -2336 17444 2822 -29 119 END
START 17504 -2472 16644 3214 738 -1797 END
START 16268 -2056 16744 3653 1509 -3353 END
START 15188 -2292 16096 4132 1674 -4560 END
START 14296 -2248 14948 4216 1384 -5706 END
START 13348 -2192 14300 3882 833 -6730 END
START 12192 -2212 14068 3552 382 -7616 END
START 11368 -2124 13936 3290 70 -8272 END
START 10288 -2124 13572 3224 -254 -8703 END
START 9548 -1916 13344 3205 -429 -9033 END
START 9096 -1632 12700 2980 -556 -9296 END
START 8472 -1440 12216 2546 -735 -9520 END
START 8332 -1188 11632 1851 -769 -9777 END
START 7836 -1068 11600 1043 -619 -10176 END
START 7236 -1096 11728 438 -511 -10654 END
START 6408 -712 11840 -182 -503 -11084 END
START 5620 -876 12228 -768 -486 -11413 END
START 4896 -868 12560 -928 -367 -11589 END
START 4208 -816 12288 -1052 -146 -11802 END
START 3096 -848 12108 -1214 -162 -11916 END
START 2228 -884 11928 -1400 -442 -11896 END
START 1408 -772 12020 -1659 -840 -11771 END
START 536 -636 12076 -1828 -1178 -11492 END
START -316 -680 11900 -1930 -1635 -11129 END
START -828 -680 11648 -1996 -2180 -10578 END
START -1284 -548 11268 -2237 -2704 -9974 END
START -1556 -572 10716 -2563 -2995 -9376 END
START -1708 -716 10168 -3112 -3121 -8824 END
START -1716 -828 9912 -4010 -3078 -8276 END
START -2008 -996 10192 -4826 -2921 -7817 END
START -2412 -1136 10892 -5478 -3099 -7294 END
START -2476 -1408 11296 -5999 -3228 -6603 END
START -2652 -1640 12072 -6357 -3041 -5761 END
START -2428 -1608 12636 -6599 -2798 -4825 END
START -1984 -1748 13296 -6586 -2287 -4105 END
START -1732 -1772 13692 -6431 -1439 -3624 END
START -1844 -1648 13848 -6311 -449 -3314 END
START -2116 -1984 13996 -6150 114 -3103 END
START -2616 -2156 13972 -6030 370 -3047 END
START -3520 -2436 14292 -5891 228 -2853 END
START -4692 -2616 14700 -5717 -205 -2240 END
START -5664 -2620 15132 -5880 -576 -1099 END
START -6036 -3032 15500 -5844 -516 202 END
START -6548 -3352 16092 -5473 -259 1365 END
START -6600 -3352 16076 -5236 -198 2781 END
START -6500 -3152 16060 -5306 -205 4207 END
START -6016 -3016 16360 -5555 -440 5313 END
START -5676 -2704 17352 -5730 -521 6301 END
START -5632 -2732 18232 -5806 -824 7458 END
START -4700 -2776 19172 -5525 -904 8681 END
START -3336 -2692 19876 -5355 -676 9608 END
START -2088 -2460 20572 -4685 206 10200 END
START -952 -2272 20560 -3775 1421 10385 END
START -644 -2208 20848 -2688 2743 10167 END
START -492 -2192 20156 -1605 3771 9891 END
START -704 -2300 19072 -906 4184 9478 END
START -1588 -2208 18188 -889 3718 9539 END
START -1504 -2448 18020 -1508 2571 10325 END
START -520 -2360 18756 -2063 1883 11377 END
START 616 -2536 19276 -2017 2308 12076 END
START 2032 -2976 18944 -1687 4060 12782 END
START 3780 -3180 18196 -1372 6452 13078 END
START 4780 -3032 17300 -1243 8417 12732 END
START 5392 -2980 16740 -1524 8817 12398 END
START 6436 -2304 16560 -2435 7587 12327 END
START 7956 -1720 17092 -3370 6456 12189 END
START 9688 -1700 17808 -3978 6557 11747 END
START 10880 -1788 18740 -4091 7978 11092 END
START 11840 -2028 19220 -3516 9832 10502 END
START 12164 -2124 19296 -2758 10657 9553 END
START 12684 -2356 19372 -2381 10088 8614 END
START 12932 -2592 20148 -1879 8304 7370 END
START 13032 -2636 20724 -1091 5913 5980 END
START 13176 -2780 20888 148 3775 4536 END
START 14000 -2628 20308 959 2389 3036 END
START 14484 -2748 19508 1476 1759 1154 END
START 14124 -2936 19336 1926 1782 -986 END
START 12948 -2944 19228 2468 2023 -2762 END
START 11152 -3092 19632 3427 1822 -4248 END
START 9156 -3184 19364 4202 1536 -5241 END