START 10728 1168 12892 1891 1845 -2867 END
START 8980 400 16240 1766 1714 -2860 END
START 10868 1028 12728 1710 1855 -3163 END
START 10412 1080 13192 1448 2034 -3359 END
START 10552 1296 12840 1300 2778 -3748 END
START 10940 604 12216 1134 2829 -4269 END
START 10296 1628 12664 991 3813 -5187 END
START 9684 904 12688 792 2740 -5468 END
START 10144 316 12424 685 1852 -6450 END
START 9864 736 12648 734 942 -7475 END
START 9848 604 12368 878 538 -8414 END
START 9488 496 11980 951 449 -9324 END
START 8852 532 11696 916 524 -10062 END
START 7988 428 11472 786 692 -10589 END
START 7140 364 10844 488 949 -10893 END
START 6268 384 10824 113 1326 -10896 END
START 5308 152 10640 -325 1606 -10731 END
START 4488 464 10988 -606 1607 -10438 END
START 4016 372 10812 -903 1624 -10043 END
START 3712 204 10548 -1210 1710 -9756 END
START 3732 400 10608 -1460 1654 -9619 END
START 3536 376 10352 -1647 1598 -9692 END
START 3036 540 10712 -1833 1534 -9879 END
START 2640 660 10648 -1949 1329 -10127 END
START 2000 620 10812 -1943 1031 -10422 END
START 1100 884 10684 -1909 760 -10769 END
START 232 728 10524 -1910 265 -11071 END
START -892 752 10244 -2021 -315 -11121 END
START -1788 612 10188 -2392 -793 -10721 END
START -2468 388 10320 -2991 -1297 -10017 END
START -2936 532 10544 -3858 -1940 -9214 END
START -3244 232 11196 -4585 -2443 -8456 END
START -3412 0 12056 -4888 -3247 -7817 END
START -3684 -124 12920 -4896 -3935 -7174 END
START -3948 -236 13532 -4623 -4439 -6344 END
START -4040 88 13784 -4403 -4720 -5255 END
START -3900 384 14036 -4407 -4557 -4107 END
START -3596 220 14432 -4421 -4160 -2928 END
START -3404 380 14676 -4434 -3833 -1859 END
START -2996 344 15040 -4360 -3602 -969 END
START -2604 284 15236 -4134 -3426 -293 END
START -2380 264 15380 -3982 -3111 239 END
START -2372 124 15268 -3999 -2556 575 END
START -2692 80 15672 -4002 -1852 764 END
START -3560 116 15972 -3847 -1253 852 END
START -4916 168 16232 -3584 -1271 879 END
START -6104 96 16408 -3711 -2051 1370 END
START -7384 -92 17196 -4185 -3368 2775 END
START -7452 -108 18160 -4703 -4720 4939 END
START -6092 -324 19352 -4948 -5072 7439 END
START -4192 -396 20224 -4722 -3753 9611 END
START -2340 -212 21176 -4224 -1876 11312 END
START -616 -264 21684 -3358 -33 12489 END
START 1024 -120 21692 -2375 1009 12916 END
START 2348 100 21388 -1362 1184 12645 END
START 3116 176 20888 -618 861 11957 END
START 3496 256 20348 -84 436 11509 END
START 3608 332 20004 454 151 11265 END
START 3764 220 19544 855 111 11327 END
START 4008 148 18944 1125 562 11657 END
START 4628 108 18148 1140 1386 12343 END
START 5436 96 17520 1017 2388 12997 END
START 6368 288 16900 673 2995 13520 END
START 7492 204 16560 191 3306 13823 END
START 8748 212 16524 -260 3297 13816 END
START 9912 144 16460 -649 3346 13422 END
START 10964 80 16708 -851 3691 12780 END
START 11740 -4 17012 -718 3771 11813 END
START 12264 -48 17084 -416 3336 10930 END
START 12712 -308 17092 -80 2535 9955 END
START 13408 -452 17080 315 1534 9128 END
START 14156 -472 16716 644 509 8239 END
START 15172 -336 16112 798 -279 7279 END
START 16252 -172 16024 885 -581 6081 END
START 17080 -136 15336 982 64 4708 END
START 17380 -88 14940 1032 1079 3259 END
START 17196 -200 14440 852 2139 1674 END
START 16680 -248 14092 550 2936 190 END
START 15816 -400 14044 247 3368 -1142 END
START 14864 -412 14004 -87 3322 -2322 END
START 14068 -708 14272 -368 3042 -3324 END
START 13372 -756 14244 -550 2775 -4252 END
START 12752 -1008 14324 -640 2636 -5006 END
START 12144 -976 14168 -676 2551 -5615 END
START 11704 -1068 13992 -735 2720 -6150 END
START 11080 -768 13744 -863 2941 -6554 END
START 10580 -556 13468 -1114 3090 -6982 END
START 10072 -496 13448 -1553 3115 -7418 END
START 9744 -556 13268 -2137 3118 -7871 END
START 9212 -652 13432 -2662 3071 -8374 END
START 8652 -980 13904 -2981 2955 -8915 END
START 8220 -1196 14640 -2998 2728 -9487 END
START 7700 -1516 15084 -2717 2448 -10154 END
START 7228 -1808 15572 -2152 1952 -10959 END
START 6440 -2020 15468 -1357 1190 -11806 END
START 5664 -2352 15120 -668 219 -12594 END
START 4772 -2352 14804 -40 -553 -13233 END
START 3908 -2424 14016 414 -1254 -13688 END
START 2972 -2384 13204 487 -1565 -13956 END
START 1840 -2504 12752 224 -1342 -13698 END
START 600 -2472 12296 -190 -984 -13061 END
START -156 -2428 12056 -580 -796 -12139 END
START -808 -2512 11892 -941 -965 -11210 END
START -1204 -2580 11732 -1281 -1387 -10340 END
START -1340 -2700 11664 -1516 -1994 -9591 END
START -1316 -2560 11516 -1731 -2415 -9078 END
START -1332 -2612 11464 -2023 -2439 -8763 END
START -1496 -2788 11852 -2159 -2537 -8650 END
START -1816 -3152 12012 -2101 -2807 -8691 END
START -2424 -3236 12224 -1867 -3496 -8682 END
START -2884 -3232 12076 -1528 -4290 -8472 END
START -3308 -3088 11676 -1485 -4772 -7981 END
START -3916 -2700 11468 -1832 -4766 -7117 END
START -4328 -2352 11584 -2491 -4415 -5818 END
START -4372 -2144 12064 -3218 -4260 -4318 END
START -3820 -2012 12484 -3818 -4027 -2761 END
START -3000 -1852 12912 -4242 -3466 -1491 END
START -2260 -1828 13464 -4571 -2477 -544 END
START -1572 -1816 13576 -4696 -963 60 END
START -1632 -1432 13932 -4670 344 306 END
START -2476 -1096 14244 -4738 1101 490 END
START -3312 -980 14524 -4854 952 679 END
START -4132 -712 15120 -4978 77 856 END
START -4600 -876 15432 -4873 -916 1182 END
START -5272 -1168 15752 -4753 -1573 2018 END
START -5600 -1112 16136 -4916 -1559 3472 END
START -5668 -948 16424 -5402 -1430 5191 END
START -5040 -740 16456 -5697 -250 7098 END
START -4272 -972 17244 -6110 341 8851 END
START -3436 -1060 18136 -6267 828 10052 END
START -2400 -1008 19240 -5928 1049 10874 END
START -1408 -1124 20172 -5255 862 11454 END
START -176 -1228 20400 -4594 589 11683 END
START 864 -1328 20580 -4017 713 11556 END
START 1524 -1224 20576 -3682 1352 11791 END
START 2500 -1236 20844 -3465 2355 12043 END