START 10764 3176 15008 2068 -2100 43 END
START 12224 3232 12272 2010 -2110 -99 END
START 11572 3452 13908 2394 -2430 -712 END
START 11780 3372 13940 2329 -2811 -1446 END
START 11976 3732 13704 2146 -2997 -2252 END
START 12248 3836 13528 1983 -3213 -3215 END
START 11752 3636 13652 1938 -3454 -4147 END
START 11804 3664 13028 1756 -3216 -4818 END
START 11624 3748 12344 1289 -2696 -5322 END
START 11024 3356 12164 797 -2333 -5746 END
START 11012 3340 11800 413 -865 -6058 END
START 10744 3316 11720 -186 -399 -6665 END
START 9912 3204 11964 -668 -197 -7302 END
START 9256 3084 11968 -817 -206 -7980 END
START 8236 2708 12120 -880 -317 -8421 END
START 7308 2216 11812 -926 -566 -8652 END
START 6576 1924 11624 -1034 -671 -8606 END
START 6272 1868 11556 -1279 -695 -8584 END
START 5876 1576 11368 -1561 -736 -8722 END
START 5388 1824 11612 -1653 -738 -8740 END
START 5084 1832 11652 -1646 -803 -8648 END
START 4844 2076 11620 -1578 -903 -8604 END
START 4844 2300 11460 -1560 -895 -8706 END
START 4692 2504 11180 -1658 -439 -8778 END
START 4204 2736 10740 -1853 445 -8811 END
START 3776 2820 10624 -2130 1372 -8795 END
START 2956 2968 10356 -2531 2177 -8682 END
START 2544 2864 10208 -3093 2827 -8558 END
START 1804 2664 10356 -3590 3028 -8467 END
START 880 2708 10896 -4090 2419 -8443 END
START 364 2360 11496 -4273 1210 -8717 END
START -360 2200 11600 -4078 -40 -9008 END
START -1392 2096 11764 -3897 -1101 -9098 END
START -2000 1568 11392 -3751 -2035 -8846 END
START -2756 1808 11088 -3804 -2670 -8267 END
START -3228 2152 10928 -4253 -3102 -7418 END
START -3464 2232 11228 -4774 -3414 -6511 END
START -3800 2368 11360 -5263 -3673 -5626 END
START -3760 1960 11432 -5577 -3904 -4821 END
START -3784 1792 11832 -5896 -4046 -3877 END
START -3508 1784 12044 -6353 -4130 -2831 END
START -3288 1604 12352 -6767 -3769 -1961 END
START -3344 1972 13168 -7063 -2985 -1154 END
START -3488 1932 13672 -7111 -2206 -522 END
START -3916 1884 14068 -7059 -1406 5 END
START -4384 1544 14312 -7080 -912 664 END
START -5048 1068 14744 -7284 -761 1385 END
START -5788 828 15712 -7542 -1101 2324 END
START -6092 648 16552 -7813 -1487 3542 END
START -6000 456 17520 -8003 -1472 4825 END
START -5780 148 18880 -7894 -1180 5980 END
START -5500 -316 19804 -7363 -721 6979 END
START -5292 -416 20508 -6674 -471 7969 END
START -4948 -580 21268 -6232 -477 9039 END
START -4308 -788 21932 -5811 -806 9976 END
START -3216 -804 22496 -5012 -1080 11010 END
START -1732 -928 22404 -4062 -514 11911 END
START -680 -856 22292 -3053 575 12612 END
START 144 -1020 21624 -2304 2310 13359 END
START 1072 -1020 20928 -1787 3962 14131 END
START 1868 -792 20468 -1574 4677 14817 END
START 3172 -664 20084 -1487 4375 15387 END
START 4844 -796 19632 -1419 3764 15721 END
START 6432 -764 19304 -1577 3089 15765 END
START 8132 -860 19380 -1763 2304 15562 END
START 9912 -1072 19936 -1731 1267 15137 END
START 11668 -1128 20236 -1367 307 14530 END
START 13564 -1360 20500 -939 -231 13769 END
START 15336 -1636 20580 -373 -417 12901 END
START 17148 -1532 20548 247 -532 11890 END
START 19020 -1476 20328 929 -574 10412 END
START 20440 -1300 20128 1930 -651 8388 END
START 21000 -776 19816 3014 -330 6140 END
START 21120 -544 19052 3980 141 3813 END
START 20672 -268 17848 4713 645 1655 END
START 19796 40 16952 5176 923 -309 END
START 19012 244 15832 5266 1036 -1951 END
START 18160 248 14948 5107 1338 -3543 END
START 17104 168 14032 4772 1787 -4888 END
START 15724 116 13644 4370 2365 -6121 END
START 14372 56 13344 4007 2844 -7180 END
START 12996 -20 13240 3723 2781 -8086 END
START 11480 -248 13108 3639 2213 -8848 END
START 10436 -36 12580 3414 1349 -9511 END
START 9440 -72 11908 2911 607 -9964 END
START 8452 24 11700 2353 193 -10225 END
START 7720 -100 11436 1767 -37 -10413 END
START 7148 -144 11400 1148 -315 -10588 END
START 6460 -140 11460 537 -575 -10760 END
START 5984 -304 11488 27 -650 -11009 END
START 5464 -208 11328 -411 -224 -11194 END
START 4632 -212 11548 -870 431 -11367 END
START 3852 -464 11808 -1221 983 -11491 END
START 2856 -540 11832 -1510 1427 -11564 END
START 1676 -788 11976 -1638 1854 -11489 END
START 296 -788 12584 -1645 1576 -11349 END
START -772 -856 12892 -1511 865 -11076 END
START -1036 -776 12200 -1242 1825 -10489 END
START -1580 -380 12424 -1302 1440 -9988 END
START -1664 -88 12256 -1298 980 -9660 END
START -1904 -44 11976 -1045 87 -9537 END
START -2252 236 11540 -954 -479 -9435 END
START -2696 220 11216 -1187 -990 -9139 END
START -3280 292 11092 -1439 -1291 -8792 END
START -3808 400 11052 -1757 -1205 -8228 END
START -4428 444 10872 -2213 -972 -7434 END
START -4516 460 10892 -2863 -1050 -6541 END
START -4656 700 11492 -3566 -1269 -5571 END
START -4256 424 12320 -4046 -1424 -4636 END
START -3860 232 12876 -4139 -1214 -3884 END
START -3512 312 13248 -4028 -693 -3354 END
START -3340 416 13676 -3795 -97 -2964 END
START -3404 512 13544 -3675 415 -2649 END
START -3488 732 13532 -3716 610 -2407 END
START -3872 832 13792 -3670 440 -2184 END
START -4416 892 13784 -3679 286 -1842 END
START -4764 696 13740 -3867 143 -1358 END
START -5288 732 14176 -4029 36 -683 END
START -5872 588 14260 -4046 -244 99 END
START -6192 596 14328 -4251 -546 1134 END
START -6248 708 14532 -4626 -837 2285 END
START -6084 572 14964 -5046 -1274 3568 END
START -5212 400 15476 -5482 -1615 4792 END
START -4572 380 16372 -5652 -1704 5635 END
START -4056 364 16948 -5777 -1656 6579 END
START -3624 384 17552 -5846 -1479 7648 END
START -3168 192 18288 -6002 -1275 8699 END
START -2656 -320 19188 -5880 -1226 9616 END
START -2012 -472 20092 -5460 -1011 10282 END
START -1344 -924 21000 -4809 -795 10720 END
START -580 -1240 21420 -3976 -788 11107 END
START 352 -1068 21344 -3327 -616 11551 END
START 1456 -1076 21296 -2983 -16 11986 END
START 2788 -1184 21092 -2775 951 12360 END
START 3820 -896 20920 -2600 2301 12668 END
START 5132 -980 20784 -2376 3912 12781 END
START 6560 -1148 20264 -2142 4875 12604 END
START 7960 -1128 19892 -1930 5247 12226 END
START 9384 -1044 19884 -1619 4943 11629 END
START 10712 -856 19748 -1191 4283 10611 END
START 11936 -884 19500 -740 3549 9497 END
START 13016 -996 19108 -326 3138 8337 END
START 13684 -1008 18560 -5 3018 7100 END
START 13908 -872 18092 295 3105 5927 END
START 13944 -1032 17416 293 3194 4780 END
START 13696 -868 17372 315 3163 3710 END
START 13492 -1084 16844 414 3151 2782 END
START 13240 -1160 16448 447 2981 1701 END
START 12576 -1160 16184 429 2681 768 END
START 12016 -1280 16064 415 2395 -201 END