START -1208 1056 12036 7748 373 -3296 END
START -1956 308 14908 7865 379 -3214 END
START -356 716 10712 7861 877 -3253 END
START -700 472 10780 7650 1518 -3140 END
START -880 624 10172 7326 2174 -3334 END
START -1120 428 9352 6912 2697 -3702 END
START -1976 200 8400 6407 3096 -4060 END
START -3412 -116 7980 5990 3055 -4108 END
START -4364 -700 7000 5645 2915 -3838 END
START -5436 -980 6256 5125 2477 -3254 END
START -6456 -1468 5252 4525 2227 -2283 END
START -7144 -1120 4572 3680 2279 -968 END
START -7712 -1292 3832 2837 2355 386 END
START -8176 -1064 3356 2266 2279 1657 END
START -8388 -600 2664 1705 1365 2764 END
START -8596 -352 1852 1016 169 3565 END
START -8972 -124 1488 147 -1475 4518 END
START -9100 236 1132 -1302 -3187 5768 END
START -8876 320 1232 -3085 -4544 7480 END
START -8028 248 1464 -4537 -4945 9302 END
START -6452 444 2232 -6144 -4994 10918 END
START -4868 592 3480 -7466 -4777 11978 END
START -3176 512 4588 -8180 -4338 12314 END
START -1964 264 6068 -8628 -4196 12191 END
START -1116 108 7184 -8923 -4105 11849 END
START -428 636 8628 -8830 -3730 11775 END
START 196 812 9400 -8636 -3594 11497 END
START 1060 1060 10232 -8474 -3093 11446 END
START 496 1820 11804 -7995 -3069 11351 END
START 208 1916 12760 -7474 -3391 11543 END
START 728 1836 12724 -7570 -3850 12591 END
START 2232 1512 13184 -7964 -3811 13833 END
START 3660 1880 13804 -8503 -3307 14768 END
START 5476 1844 14960 -9115 -3194 15394 END
START 7684 1788 16856 -9485 -3220 15831 END
START 9824 1892 18484 -9167 -2430 15476 END
START 11220 2332 19976 -8255 -1894 14532 END
START 11896 2568 20584 -7822 -2091 13717 END
START 12880 2504 21580 -7463 -2374 13253 END
START 14832 2744 22652 -6775 -2229 12879 END
START 16744 2908 22936 -5688 -1673 11732 END
START 18200 2956 22940 -4368 -248 10108 END
START 18908 2904 21860 -3383 850 8210 END
START 18868 2924 21132 -2699 1641 6427 END
START 18308 2984 20144 -2100 2361 4837 END
START 17428 2976 18924 -1811 2951 3502 END
START 16624 3100 18248 -1621 3300 2299 END
START 16152 3180 17128 -1441 3477 1114 END
START 15140 2980 16656 -1218 3193 -216 END
START 14556 2872 15600 -709 3018 -1445 END
START 13192 2508 15052 -344 1320 -2554 END
START 13112 2332 12976 1 1196 -3733 END
START 12452 1796 11432 -262 1763 -4655 END
START 11580 1640 9748 -915 2267 -5491 END
START 10164 1412 9048 -1969 2109 -6247 END
START 9060 984 8460 -3118 1715 -6866 END
START 8072 940 7956 -4462 1387 -7141 END
START 7468 580 8112 -5817 878 -7457 END
START 6784 316 8644 -6681 358 -7790 END
START 6044 -16 8820 -7408 -26 -7930 END
START 5168 -460 8796 -8191 -161 -7769 END
START 5340 -656 8864 -9108 -430 -7381 END
START 5820 -732 8884 -10309 -496 -7357 END
START 5764 -824 9812 -11401 -40 -7659 END
START 5592 -996 10672 -12321 152 -8029 END
START 5496 -1336 12220 -13023 -102 -8463 END
START 5204 -1652 14444 -13291 -722 -9062 END
START 4772 -2224 16480 -12810 -1252 -9561 END
START 5240 -2608 18200 -11981 -1486 -9954 END
START 5792 -2912 19176 -11019 -887 -10653 END
START 5288 -3500 20588 -9786 -197 -11512 END
START 3904 -4296 21268 -8460 52 -12127 END
START 2360 -4636 21332 -7406 167 -12082 END
START 1008 -4872 21404 -6752 255 -11550 END
START 20 -5224 21104 -6323 635 -10551 END
START -1028 -5624 20876 -6341 1368 -9292 END
START -1972 -5676 20860 -6731 2034 -7699 END
START -2464 -5924 21348 -6997 2806 -6003 END
START -3000 -6128 22136 -6831 3307 -4578 END
START -3324 -6532 23080 -6184 3376 -3439 END
START -3388 -6800 23572 -5043 2956 -2487 END
START -3336 -6592 23372 -3750 2511 -1776 END
START -3284 -6344 23264 -2518 2022 -1253 END
START -2996 -6016 22956 -1296 1614 -872 END
START -2952 -5360 22840 -7 1027 -559 END
START -3012 -5076 21984 1005 688 -164 END
START -3040 -4796 21068 1694 617 473 END
START -2684 -4508 20540 2043 451 1256 END
START -2268 -4164 20428 2339 167 2001 END
START -1688 -3744 20408 2699 -317 2592 END
START -784 -3680 20516 3129 -639 3042 END
START 268 -3348 20452 3753 -672 3125 END
START 856 -3080 20100 4390 -403 3131 END
START 1284 -2824 19716 4899 75 3145 END
START 1436 -2672 19308 5259 391 3157 END
START 1712 -2476 18712 5446 530 3275 END
START 1988 -2152 18532 5341 462 3463 END
START 2316 -1788 18780 5093 313 3586 END