START -372 3108 11300 138 89 -273 END
START -132 2288 10028 -57 41 -137 END
START -1040 3144 11436 -87 -62 -266 END
START -1516 2752 11276 -753 -340 -172 END
START -2080 2352 11400 -1099 -580 -121 END
START -2504 2128 11124 -1218 -766 94 END
START -3032 1728 11188 -1146 -910 410 END
START -3568 1500 11076 -1203 -1225 828 END
START -3672 1296 10804 -1729 -1664 1728 END
START -3492 812 11060 -2407 -1942 2707 END
START -3104 764 11600 -2855 -2026 3602 END
START -2592 744 12260 -2955 -2014 4449 END
START -2020 480 12708 -2799 -1837 4877 END
START -1636 496 12700 -2738 -1887 5179 END
START -1144 324 12600 -2912 -1903 5501 END
START -1284 684 13012 -3210 -2125 5722 END
START -1500 932 13660 -3448 -2681 6179 END
START -1576 1100 14004 -3519 -3069 6926 END
START -1204 996 14272 -3517 -3065 7917 END
START -304 852 14108 -3680 -2514 8992 END
START 1064 524 14004 -3826 -1645 9968 END
START 2380 948 14016 -4154 -961 10512 END
START 3392 824 14548 -4300 -819 10336 END
START 4280 896 14960 -4278 -868 9853 END
START 4488 1392 15420 -4195 -864 9314 END
START 4396 1252 15816 -4021 -685 9064 END
START 4528 1528 15892 -3856 -387 9148 END
START 4724 1672 15932 -3617 -64 9408 END
START 4808 2080 16028 -3339 192 9707 END
START 5284 2440 15844 -3049 530 10001 END
START 6292 2448 15144 -2898 1079 10227 END
START 7636 3020 14460 -3277 1551 10038 END
START 8264 3620 14496 -4171 1730 9387 END
START 8648 4064 15032 -5033 1939 8781 END
START 8516 4264 16144 -5741 2131 8245 END
START 8208 4520 17128 -6021 2165 7998 END
START 8340 4768 18032 -5917 2273 7987 END
START 9064 4620 18796 -5623 2284 7884 END
START 9760 4624 19180 -5136 2174 7431 END
START 10672 4404 19508 -4732 1951 6768 END
START 11548 4448 19712 -4178 1818 5733 END
START 11828 3972 19740 -3405 1772 4496 END
START 12152 3632 19520 -2630 1540 3351 END
START 12044 3640 19532 -1896 1065 1884 END
START 11604 3344 19320 -1132 275 521 END
START 11192 3136 18636 -504 -158 -523 END
START 10676 2896 17804 -154 -177 -1313 END
START 10292 2668 17064 -139 -122 -1860 END
START 10100 2412 16716 -241 13 -2181 END
START 10312 1868 16324 -234 200 -2524 END
START 10552 1512 16300 -176 401 -3099 END
START 10488 1304 15960 -61 506 -3759 END
START 10184 992 15492 77 514 -4465 END
START 10068 744 15256 223 429 -5108 END
START 9520 1036 14836 367 306 -5764 END
START 8996 884 14172 273 151 -6307 END
START 8464 916 13776 -27 14 -6712 END
START 7936 840 13460 -411 -50 -6971 END
START 7664 764 13160 -883 34 -7071 END
START 7380 708 13640 -1244 198 -7228 END
START 6992 716 13620 -1496 207 -7360 END
START 6852 704 13792 -1771 191 -7478 END
START 6264 600 14160 -2113 87 -7788 END
START 5816 452 14580 -2273 -234 -8015 END
START 5360 528 15260 -2155 -475 -8150 END
START 4972 432 15416 -1947 -557 -8290 END
START 4660 320 15636 -1829 -587 -8477 END
START 3996 284 15852 -1735 -672 -8713 END
START 3216 124 15928 -1754 -784 -8872 END
START 2116 84 16336 -1760 -968 -8848 END
START 1272 -24 16332 -1793 -1078 -8553 END
START 568 -96 16740 -1826 -886 -8082 END
START 132 -176 17196 -1679 -766 -7569 END
START -452 -324 17576 -1188 -899 -7077 END
START -864 -332 17412 -660 -980 -6522 END
START -1092 -260 16992 -518 -930 -6035 END
START -1436 -168 17104 -404 -911 -5377 END
START -1408 104 17028 -338 -755 -4810 END
START -1472 368 17012 -383 -617 -4368 END
START -1700 484 16920 -449 -532 -3983 END
START -1920 696 17104 -539 -460 -3402 END
START -1984 836 17316 -690 -249 -2697 END
START -1772 856 17964 -613 -139 -2058 END
START -1432 956 18428 -360 -91 -1521 END
START -1108 1332 18784 86 -63 -1113 END
START -680 1288 19164 658 -74 -790 END
START -72 1400 19044 1166 97 -536 END
START 444 1620 19088 1543 332 -418 END
START 732 1876 19364 1936 501 -351 END
START 1080 1884 19064 2301 531 -381 END
START 1304 2096 18960 2537 504 -338 END
START 1540 2400 18792 2644 564 -252 END
START 1784 2672 18468 2749 709 -55 END
START 1956 2700 18364 2734 849 64 END
START 2056 2732 18492 2788 1100 276 END