START -1512 2020 12096 4767 2759 -7171 END
START -2952 1432 15104 4818 2823 -7021 END
START -2792 2212 11276 4479 3135 -6710 END
START -2820 1844 10196 3709 4541 -6197 END
START -4424 1660 9992 3000 5237 -5003 END
START -5308 944 9880 2390 5026 -3873 END
START -6176 1120 9996 2063 4391 -2858 END
START -6380 548 9316 2080 3482 -2261 END
START -6512 -412 8124 1974 3193 -1907 END
START -7588 -1112 6900 1482 3096 -1325 END
START -8884 -1420 6180 705 3117 -320 END
START -10160 -1568 5456 -378 3053 781 END
START -11308 -1908 5280 -1492 2421 1954 END
START -12236 -2336 4736 -2573 1376 3374 END
START -13364 -2632 5068 -3719 -301 5200 END
START -14040 -2588 5624 -4704 -2589 7569 END
START -13652 -2612 5864 -5888 -4972 10155 END
START -13016 -2680 6932 -6821 -6453 12894 END
START -11340 -2584 8516 -7427 -7429 15780 END
START -8696 -2864 10080 -7309 -6953 18201 END
START -5856 -2940 11452 -6498 -6205 19718 END
START -3104 -3520 11268 -5451 -5282 20369 END
START -352 -3416 11404 -4772 -4842 20482 END
START 1176 -2872 11744 -3950 -4676 19714 END
START 1748 -2432 11652 -3404 -5070 19012 END
START 1948 -1416 11708 -3572 -5854 19023 END
START 2772 -1300 12356 -3896 -6542 19860 END
START 5124 -784 12624 -4351 -6601 21118 END
START 8024 -284 13324 -4594 -5866 21773 END
START 10904 632 13800 -4572 -4817 21659 END
START 13260 996 13928 -4671 -4664 20882 END
START 15980 1440 14316 -4853 -4830 19665 END
START 18360 2144 14692 -5300 -3752 17817 END
START 19648 2612 15240 -5559 -2737 15483 END
START 19396 3140 16412 -5492 -1950 13446 END
START 19228 3732 17404 -5315 -1406 12216 END
START 20028 3928 18108 -4841 -528 11285 END
START 21084 4408 18288 -4243 424 10035 END
START 21864 4600 18480 -3546 935 8310 END
START 23016 4728 18304 -3012 1249 6427 END
START 23776 5236 17684 -2645 1546 4049 END
START 23748 5072 17004 -2453 2158 1491 END
START 23108 4540 16144 -2669 2896 -1165 END
START 21612 4780 16516 -2735 3168 -3510 END
START 20040 4272 16192 -2357 3296 -5568 END
START 18392 4028 15592 -1981 3169 -7328 END
START 16900 3784 14660 -1959 2719 -8745 END
START 15356 3408 13580 -2278 2256 -9854 END
START 14224 2800 12176 -3044 2121 -10667 END
START 13164 2176 11684 -4432 2220 -11356 END
START 12072 1656 12044 -5612 2054 -12040 END
START 11056 1048 12740 -6152 1904 -12725 END
START 9880 444 13296 -6358 1904 -13528 END
START 9180 -276 13344 -6452 1888 -14287 END
START 8020 -936 13588 -6615 1939 -15154 END
START 6504 -1480 14524 -6694 1569 -15871 END
START 4976 -2320 15096 -6307 867 -16189 END
START 3312 -2792 15156 -5896 647 -16192 END
START 1604 -3028 14628 -5883 1041 -15723 END
START -224 -3320 14968 -6128 1113 -14863 END
START -1752 -3440 15272 -6433 413 -13704 END
START -2624 -3720 15772 -6793 -671 -12428 END
START -3224 -4028 16360 -7097 -1240 -10881 END
START -3356 -4404 16920 -7322 -1252 -9332 END
START -3248 -4644 17884 -7252 -1051 -8021 END
START -2908 -4748 19460 -6552 -1266 -7181 END
START -2828 -4848 20216 -5524 -1245 -6770 END
START -3492 -4816 20664 -4231 -1319 -6363 END
START -4256 -4504 20768 -3089 -1644 -5514 END
START -5036 -3832 20448 -2269 -1967 -4044 END
START -4904 -3524 20320 -1774 -2249 -2298 END
START -3712 -2984 19888 -1518 -2038 -710 END
START -2656 -2604 20128 -1206 -1133 446 END
START -1960 -2328 20452 -737 -457 1104 END
START -1612 -1924 20704 -37 -482 1553 END
START -1280 -1380 20648 628 -662 1917 END
START -692 -1116 20300 1179 -629 2256 END
START -352 -748 19924 1618 -569 2632 END
START 308 -396 19564 1786 -575 2975 END
START 1004 -264 19728 1902 -674 3201 END
START 1408 -148 20232 2183 -772 3349 END
START 2052 -144 20720 2779 -866 3428 END
START 2776 32 20828 3570 -908 3253 END
START 3088 328 20768 4210 -861 3121 END
START 3564 396 20428 4664 -637 3106 END
START 4268 520 20316 4968 -300 3185 END
START 4892 528 20472 5275 121 3292 END
START 5360 548 20524 5605 599 3344 END
START 5824 564 20980 6214 1034 3288 END
START 6276 632 21048 7101 1323 3063 END
START 6596 720 20728 7979 1563 2754 END
START 6812 744 20036 8677 1634 2463 END
START 6844 740 19480 9191 1555 2342 END
START 7040 1216 18844 9368 1418 2210 END
START 7076 1328 18548 9402 1456 1968 END
START 7280 1508 18200 9409 1844 1697 END
START 7404 1440 17796 9605 2347 1239 END
START 7108 1596 17232 9856 2965 757 END
START 6636 1652 16328 10096 3463 377 END
START 6076 1704 15208 10296 3712 -37 END
START 5488 2040 13712 10198 3726 -329 END
START 4556 2188 12780 9799 3418 -551 END
START 3952 2140 12036 9332 3172 -559 END
START 3900 2012 11352 8810 2962 -437 END
START 4096 2228 10968 8426 2780 -468 END
START 4320 2504 10700 8417 2752 -845 END
START 4284 2720 10364 8725 2670 -1474 END
START 3952 2800 9080 8928 2495 -2176 END
START 3240 2960 7732 8866 2479 -2646 END
START 2596 3220 6512 8404 2234 -2877 END
START 2004 3224 5428 7752 1963 -2816 END
START 1564 3480 4516 6869 1678 -2575 END
START 1344 3600 3416 5846 1514 -2237 END
START 1016 3552 2692 4790 1647 -1790 END
START 696 3636 1796 3609 1888 -1220 END
START 776 3548 1276 2310 2231 -768 END
START 456 3276 772 1052 2374 -296 END
START 260 3192 544 -50 2280 98 END
START -268 3172 356 -915 1942 496 END
START -552 3248 356 -1691 1431 895 END
START -1020 3336 0 -2360 759 1422 END
START -1124 3452 -524 -2936 111 1924 END
START -1132 3420 -968 -3657 -674 2440 END
START -1048 3328 -1896 -4503 -1547 2979 END
START -624 3256 -2668 -5859 -2497 3471 END
START -128 2724 -3472 -7590 -3514 3856 END
START 256 2380 -4340 -9816 -4401 4263 END
START 1720 1080 -4420 -12585 -4704 4404 END
START 1176 532 -2436 -15235 -5514 4591 END
START 1400 -620 -1108 -17162 -6357 5014 END
START 1292 -1500 552 -18834 -7353 5264 END
START 1592 -2492 2660 -20119 -8793 5742 END
START 2660 -3504 4468 -21119 -9358 6425 END
START 3728 -3660 6768 -22002 -8683 7115 END
START 6320 -4456 9468 -22840 -7883 7650 END
START 8036 -5196 13036 -22679 -6553 7088 END
START 8976 -5508 16380 -21760 -6004 6360 END
START 9164 -5464 19260 -20575 -4830 5794 END
START 9300 -5144 20868 -19219 -3901 5553 END
START 9712 -5136 21352 -18610 -2739 5516 END
START 10216 -4876 22768 -18753 -1333 5659 END
START 11160 -4980 24740 -19120 267 5741 END
START 11832 -5192 27568 -18958 2160 5345 END
START 11836 -5400 30432 -17780 3465 4528 END
START 11356 -5476 32767 -15908 4536 3812 END
START 11192 -5840 32767 -13594 5847 3294 END
START 10824 -5744 32767 -11342 7024 2750 END
START 10076 -5400 32767 -9543 7585 2257 END
START 9744 -5444 32748 -8051 7720 1821 END
START 9340 -5388 32256 -6574 7422 1404 END
START 9036 -5384 31800 -5081 6961 870 END
START 8528 -5344 31092 -3613 6319 214 END
START 8132 -5440 30352 -2265 5425 -559 END
START 7764 -5228 29548 -758 4360 -1454 END
START 7296 -5260 28216 677 3547 -2201 END