START -1624 3420 10504 -110 183 62 END
START -2652 3148 13148 -38 -45 239 END
START -2332 2964 11504 -179 -149 411 END
START -2444 2772 11340 -375 -595 731 END
START -2944 2268 11196 -838 -709 1056 END
START -3476 1604 11552 -1558 -815 1646 END
START -3916 1316 12248 -1993 -656 2868 END
START -3564 724 12760 -2124 -185 3989 END
START -3140 404 13112 -2012 75 5039 END
START -2572 -116 13412 -1455 -105 5822 END
START -2292 -392 13152 -896 -260 6325 END
START -2216 -184 12672 -363 -395 6795 END
START -2172 -256 12028 65 -828 7064 END
START -2508 104 11584 124 -1494 7249 END
START -2416 280 11240 -143 -2284 7643 END
START -2816 660 11568 -728 -3015 8464 END
START -2728 520 12068 -956 -3391 9621 END
START -1816 528 12568 -824 -3446 10806 END
START -380 424 12504 -680 -3413 11674 END
START 1152 1036 12504 -681 -3368 12205 END
START 2508 1380 12700 -932 -3581 12375 END
START 3916 1956 13180 -1123 -3783 12532 END
START 5408 2732 14344 -1143 -3724 12508 END
START 6836 3504 15220 -880 -3567 12281 END
START 8444 4216 15832 -563 -3307 12027 END
START 10032 4800 16064 -231 -2778 11773 END
START 11256 5296 15924 141 -1855 11558 END
START 12680 5656 15724 93 -1053 11292 END
START 14264 5968 15852 -18 -669 10733 END
START 15544 6040 15748 92 -149 9664 END
START 16504 6256 15884 238 396 8477 END
START 17124 6540 15756 440 974 6967 END
START 17032 6856 15548 626 1448 5569 END
START 16556 7048 14972 616 1916 4360 END
START 16476 7336 14548 500 2393 3391 END
START 16256 7364 14252 503 2792 2178 END
START 15868 7348 13792 527 3060 756 END
START 15848 7056 12900 339 3326 -804 END
START 14636 6716 12344 193 3487 -2419 END
START 12988 6100 11992 30 3465 -3815 END
START 11040 5424 11360 -233 3315 -4661 END
START 9008 5320 10736 -566 3041 -5042 END
START 7532 5140 10612 -899 2289 -5217 END
START 6064 4900 9900 -1346 1408 -5245 END
START 5060 4600 8968 -2207 1309 -4851 END
START 4324 4432 8436 -3378 1309 -4369 END
START 3968 3532 8440 -4650 1117 -3918 END
START 3364 2624 9516 -5589 761 -3735 END
START 3064 1640 10532 -5894 -18 -3667 END
START 3356 812 11124 -5886 -639 -3780 END
START 3152 340 11992 -5406 -1115 -4287 END
START 2272 -300 12468 -4681 -2038 -4965 END
START 948 -512 12744 -4012 -3384 -5327 END
START 356 -740 12884 -3464 -4491 -5305 END
START -700 -600 12616 -3098 -5109 -4845 END
START -992 -692 12284 -3086 -5060 -3941 END
START -1096 -1056 12028 -3216 -4708 -2803 END
START -856 -428 11868 -3671 -4055 -1485 END
START -368 160 12068 -4127 -3277 -413 END
START 496 272 12332 -4668 -2530 234 END
START 256 916 13016 -5035 -1866 623 END
START 440 908 13424 -5189 -1609 1235 END
START 960 1524 13692 -5344 -1093 1858 END
START 928 1536 14144 -5314 -721 2416 END
START 1392 1960 13792 -5630 -616 3235 END
START 2584 2820 14284 -6031 -587 3802 END
START 3464 3664 14912 -6126 -578 3804 END
START 4240 4128 14736 -6248 -479 3610 END
START 4792 4320 14860 -6582 -687 3384 END
START 5592 4672 15388 -7059 -946 3116 END
START 6392 4612 16360 -7258 -1320 2850 END
START 7148 5116 16844 -7411 -1017 2529 END
START 7344 5208 17600 -7562 -200 2341 END
START 7176 5032 17900 -7574 429 2383 END
START 7228 4996 18364 -7745 924 2586 END
START 7272 4680 18892 -7904 940 2687 END
START 8136 4296 19436 -8006 774 2813 END
START 8996 4092 20064 -7978 901 2645 END
START 9440 3292 20748 -7732 1286 2221 END
START 10036 2680 21092 -7265 1588 1748 END
START 10592 2300 21656 -6539 1833 1044 END
START 10672 1856 21672 -5684 1944 -36 END
START 10344 1152 21672 -5009 2043 -857 END
START 10084 724 21628 -4321 2153 -1452 END
START 10204 372 21608 -3696 2336 -2049 END
START 10012 -28 21652 -2835 2429 -2620 END
START 9852 -148 21420 -1712 2283 -3148 END
START 10168 -108 20956 -534 1933 -3788 END
START 10608 44 20024 564 1485 -4750 END
START 10732 428 18976 1356 979 -5608 END
START 10812 700 17824 1992 487 -6458 END
START 10808 1220 16948 2234 134 -7260 END
START 11000 1740 15884 2206 340 -7832 END
START 11012 1688 14004 1702 1882 -8308 END
START 10096 1476 12704 756 4000 -8594 END
START 8912 1156 12176 -502 5150 -8870 END
START 7364 668 12720 -1453 5180 -9181 END
START 5644 164 13468 -2041 4969 -9111 END
START 4768 -268 14384 -2128 4564 -8823 END
START 4404 -768 14836 -1866 3836 -8709 END
START 4292 -1240 14868 -1434 3214 -8634 END
START 3656 -1296 14964 -1067 3042 -8638 END
START 2820 -1520 14448 -920 2863 -8441 END
START 2288 -1716 14328 -1033 2345 -8160 END
START 1652 -1840 14600 -1257 1697 -7804 END
START 564 -1916 15056 -1366 1270 -7344 END
START -208 -2064 15272 -1449 1121 -6585 END
START -588 -2344 15500 -1621 1125 -5416 END
START -172 -2252 16072 -1722 1387 -4291 END
START 16 -2108 16924 -1361 1481 -3726 END
START -28 -2044 17040 -978 1220 -3332 END
START 520 -1876 17108 -681 947 -3009 END
START 1036 -1608 17336 -400 972 -2935 END
START 1020 -1384 17796 88 1081 -3023 END
START 408 -1272 17496 523 1072 -2971 END
START -200 -968 17396 935 889 -2698 END
START -584 -680 17348 1257 620 -2273 END
START -740 -552 17060 1488 427 -1702 END
START -752 -328 16900 1669 397 -1002 END
START -468 -8 16768 1712 511 -392 END
START -172 152 16468 1656 651 113 END
START 164 480 16536 1583 749 521 END
START 560 748 16740 1513 691 875 END
START 1096 1136 16712 1568 582 1084 END
START 1704 1436 16728 1706 601 1000 END
START 1696 1812 16796 1707 719 922 END
START 1492 2136 17092 1530 614 998 END
START 1288 2188 18036 1565 157 1172 END
START 1348 2204 18808 1936 -292 1345 END
START 1672 2112 19052 2351 -445 1637 END
START 2140 2132 19220 2686 -410 2036 END
START 2624 2352 19540 3107 -384 2242 END
START 3104 2356 19724 3454 -291 2254 END
START 3396 2380 19884 3676 -254 2321 END
START 3608 2332 20180 3915 -254 2298 END
START 4228 2368 20592 4291 -154 2148 END
START 4564 2164 20800 4942 147 1842 END
START 4516 2296 20784 5558 517 1589 END
START 4356 2180 20692 6179 669 1360 END
START 3972 2436 20364 6863 760 1211 END
START 3544 2364 19740 7497 902 1280 END
START 3320 2568 18912 7940 1141 1509 END
START 3256 2944 17648 8129 1385 1841 END
START 3616 2992 16600 7986 1761 2224 END
START 3888 3260 15488 7577 2367 2525 END
START 3988 3520 14700 7023 2964 2722 END
START 4212 3380 13828 6336 3482 2837 END
START 4032 3276 13308 5824 3968 2783 END
START 3716 3248 12872 5310 4373 2829 END
START 3572 2896 12312 4780 4409 2964 END
START 3664 2440 12292 4404 4142 2995 END
START 3784 2192 12444 4530 3729 3033 END
START 4048 2168 11992 4918 3603 2904 END
START 4196 2016 11380 5496 3681 2705 END
START 4432 1704 10180 6104 3944 2475 END
START 4544 1940 8812 6492 4023 1969 END
START 4344 2060 7388 6588 3828 1282 END
START 3872 2360 6052 6319 3415 682 END
START 3372 2344 4812 5821 2848 287 END
START 2684 2460 3864 4998 2413 61 END
START 1932 2504 3168 4100 2216 106 END
START 1320 2552 2408 3130 2191 430 END
START 848 2540 1884 2174 2262 928 END
START 556 2592 1400 1263 2256 1444 END
START 676 2708 744 315 2144 1938 END
START 592 2648 268 -644 2140 2278 END
START 588 2736 -260 -1559 1973 2507 END
START 240 2844 -564 -2507 1374 2717 END
START 260 2940 -1068 -3503 535 2912 END
START 332 2824 -1496 -4686 -483 3092 END
START 532 2468 -2140 -6183 -1485 3230 END
START 892 1900 -2644 -7982 -2191 3542 END
START 1336 1256 -2544 -10114 -2564 3868 END
START 1684 236 -1792 -12338 -2675 4068 END
START 2004 -856 -544 -14071 -2798 4287 END
START 2856 -1492 524 -15671 -3112 4285 END
START 2840 -2292 2700 -16811 -3530 3993 END
START 2644 -2392 5260 -16983 -4315 3754 END
START 2444 -1888 7108 -16712 -4988 3582 END
START 2328 -1576 8256 -16162 -4989 3562 END
START 3012 -1780 9064 -15933 -4500 3703 END
START 4084 -2216 10428 -15956 -4106 3492 END
START 4896 -2252 12192 -15885 -4022 2836 END
START 5184 -2400 14164 -15595 -4697 1735 END
START 4808 -2140 15572 -15555 -5359 1208 END
START 4848 -1976 16676 -16111 -5273 1364 END
START 5164 -2584 18136 -16863 -4347 1750 END
START 4992 -3044 19988 -17491 -2612 2489 END
START 5368 -3420 22156 -17665 -725 3484 END
START 5600 -3256 24356 -17330 743 4005 END
START 6084 -3196 26168 -16559 1651 4020 END
START 6488 -3452 27348 -15387 2010 3707 END
START 6468 -3644 27728 -14213 1848 3196 END
START 6792 -4332 27752 -13565 2068 2976 END
START 6660 -4396 28940 -12940 2292 2951 END
START 6684 -4448 30124 -11864 2267 3083 END
START 7156 -4676 30912 -10196 2074 3080 END
START 7712 -4684 31100 -8157 1682 2719 END
START 8364 -4532 31084 -6311 1171 1929 END
START 8244 -4368 30980 -4342 552 993 END
START 7956 -4176 30268 -2531 -5 263 END
START 7404 -4124 29676 -1020 -391 -223 END
START 7120 -4108 28540 372 -841 -397 END
START 7068 -3960 27532 1387 -896 -276 END
START 7188 -3748 26940 2328 -636 -139 END
START 6948 -3580 26324 3541 68 -21 END
START 6688 -3312 25160 4666 675 28 END