START 3036 1648 15376 1657 -928 -4 END
START 1308 396 19044 1639 -831 47 END
START 3436 1652 14780 2106 -1200 -259 END
START 2992 1864 14876 2553 -1710 -589 END
START 2820 1604 13972 1976 -1546 -1257 END
START 1660 1692 13812 812 -828 -1985 END
START -196 1272 14540 53 -393 -1900 END
START -1488 860 14872 -788 192 -1609 END
START -2888 556 16220 -1205 427 -1342 END
START -4136 -144 16760 -1065 498 -861 END
START -5204 -932 16768 -1033 636 -97 END
START -6420 -1504 17084 -1160 526 1030 END
START -7308 -2524 17948 -921 122 2531 END
START -7552 -3068 18432 -292 -561 4080 END
START -7488 -3296 18532 366 -1297 5844 END
START -6652 -3500 18460 1293 -2183 7684 END
START -4984 -3496 17736 2215 -2440 9422 END
START -3444 -3048 17108 3038 -2227 10840 END
START -1932 -2740 16052 4113 -1889 11842 END
START -456 -1768 14556 4792 -2196 12660 END
START 1396 -952 13404 5059 -2875 13031 END
START 2784 -76 12176 5109 -2833 13103 END
START 4264 680 11052 4824 -2904 13033 END
START 5480 1044 10388 4451 -2596 12802 END
START 6392 1396 9936 3891 -2589 12464 END
START 7144 1692 9744 3157 -2649 12173 END
START 7904 1940 9856 2692 -2881 11847 END
START 8656 2128 10056 2160 -3291 11420 END
START 9452 1764 10368 1698 -3619 10971 END
START 10160 1612 10528 1234 -3850 10852 END
START 11124 1280 11080 672 -3314 10804 END
START 11748 896 11236 185 -2524 10697 END
START 12188 560 11836 -43 -1823 10381 END
START 12416 196 12212 5 -1254 9910 END
START 12444 -256 12616 136 -740 9325 END
START 11936 -568 12924 374 -613 8700 END
START 11572 -684 13012 612 -823 8261 END
START 11132 8 13108 964 -1313 7888 END
START 11596 572 12464 1129 -1853 7838 END
START 12908 392 11176 1067 -1492 7506 END
START 13304 504 10352 581 -355 6844 END
START 13300 276 10192 122 626 6107 END
START 13012 -20 9928 -117 1638 5199 END
START 11948 248 9724 -282 2322 4166 END
START 10172 1036 9640 -658 2062 3374 END
START 8860 1164 9572 -1282 1423 2990 END
START 7880 1228 9608 -1899 1079 2822 END
START 7348 1376 9980 -2308 808 2906 END
START 7148 1568 9800 -2483 998 2993 END
START 6668 2744 9608 -2702 816 3141 END
START 7068 3680 8892 -3281 675 3147 END
START 7532 4152 8388 -4324 711 2792 END
START 7856 4348 8464 -5727 605 2194 END
START 7696 4340 9328 -7083 418 1367 END
START 7068 4124 10924 -8158 118 484 END
START 6100 3652 12584 -8779 -888 35 END
START 5648 3024 14116 -9165 -2053 147 END
START 6224 2268 15288 -9469 -2764 579 END
START 7196 1904 16484 -9706 -2769 1020 END
START 8424 1608 18068 -9737 -2464 1239 END
START 9428 1164 19380 -9407 -2339 1125 END
START 10812 672 20612 -8924 -2537 809 END
START 12136 384 21536 -8309 -2750 317 END
START 13544 -280 22180 -7486 -2722 -402 END
START 15128 -676 22452 -6559 -2301 -1373 END
START 15816 -984 23048 -5433 -1452 -2645 END
START 16036 -1504 23016 -3892 -608 -3898 END
START 16092 -1664 22620 -2375 100 -4963 END
START 16028 -1588 21656 -956 944 -6008 END
START 15840 -1728 20372 244 1923 -7070 END
START 15136 -1728 18656 1144 2828 -8102 END
START 14016 -1828 17264 1784 3460 -9051 END
START 13016 -1824 15648 2082 3753 -9739 END
START 12104 -1872 14288 2154 4072 -10255 END
START 11012 -1912 12996 2055 4245 -10505 END
START 10192 -1764 12000 1642 4156 -10560 END
START 9584 -1332 11352 1058 3832 -10594 END
START 9376 -1416 10780 690 3501 -10906 END
START 9600 -1112 10460 360 2907 -11495 END
START 9368 -1196 10176 55 2412 -12445 END
START 8424 -1548 9428 -275 2675 -13158 END
START 7004 -1648 9276 -706 3380 -13373 END
START 5616 -1624 8940 -1119 3778 -13075 END
START 4492 -1604 8356 -1908 4173 -12477 END
START 3556 -1384 8696 -2797 4076 -11871 END
START 2928 -1396 8708 -3270 3453 -11400 END
START 2448 -1348 8488 -3753 2956 -11061 END
START 1208 -1708 8164 -4626 2936 -10748 END
START -280 -2168 8448 -5310 3195 -9984 END
START -1732 -2200 8556 -5854 3572 -8802 END
START -3116 -2196 8752 -6553 3506 -7603 END
START -4148 -2572 9124 -7149 2402 -6561 END
START -4756 -2624 8964 -7878 910 -5699 END
START -5504 -2968 9752 -8630 -879 -5070 END
START -6288 -3228 10456 -9267 -2058 -4208 END
START -7016 -2852 11008 -10148 -2220 -2946 END
START -7508 -3048 12512 -10786 -2027 -1351 END
START -7928 -3248 14160 -10950 -2202 242 END
START -7968 -3508 15584 -10923 -2588 1725 END
START -8212 -4132 17188 -10788 -2917 3165 END
START -7852 -4344 18880 -10198 -2964 4707 END
START -7600 -4600 20680 -9343 -2510 5837 END
START -7628 -4872 22084 -8017 -1894 6528 END
START -8216 -5076 23020 -6404 -1703 7043 END
START -8640 -5216 23816 -5232 -2474 8210 END
START -7976 -5708 24484 -3997 -4112 9675 END
START -5880 -6108 25108 -3107 -5477 11153 END
START -3368 -6492 26436 -1822 -5164 12345 END
START -296 -6860 27532 97 -3742 13494 END
START 2284 -6984 28132 2550 -1496 14299 END
START 5412 -6792 26320 5210 218 14566 END
START 7196 -6128 23684 7040 817 14550 END
START 9144 -5492 20564 7816 40 14698 END
START 11644 -4336 18260 7197 -1404 14464 END
START 13820 -3132 17172 5924 -2448 13808 END
START 16884 -2580 17008 4948 -1901 12828 END
START 18648 -2212 17240 5033 502 11214 END
START 19560 -1936 16892 5599 3099 9429 END
START 19516 -1468 15836 6266 5072 7343 END
START 18784 -1016 14456 6550 5685 5357 END
START 17964 -692 12744 6167 5476 3771 END
START 17640 -588 11104 5222 5270 2610 END
START 17600 -444 10208 3932 5516 1319 END
START 16692 -456 10036 2706 6025 -27 END
START 15624 -648 10276 1700 6283 -1112 END
START 14140 -872 10856 847 6257 -1958 END
START 12812 -1160 11220 337 5974 -2757 END
START 11528 -1236 10788 -128 5566 -3496 END
START 10280 -1656 10632 -1215 4960 -4260 END
START 9036 -2000 10468 -2564 4023 -4746 END
START 8212 -2312 10776 -3820 3109 -4880 END
START 7396 -2468 11236 -5019 2717 -4678 END