START -5460 -348 15196 -1521 -616 734 END
START -5404 -1856 14288 -1510 -516 1021 END
START -4408 -732 14104 -1180 -345 1302 END
START -5280 -1264 15172 -778 -142 1843 END
START -5564 -1692 15284 -505 91 2554 END
START -5532 -2084 15120 3 717 3292 END
START -6004 -2200 14716 478 1282 4176 END
START -6352 -1788 14276 732 1635 5480 END
START -6372 -1500 14172 1160 1496 6814 END
START -5696 -956 13292 1651 964 8028 END
START -5076 -460 12232 1820 373 8875 END
START -4272 -72 11148 1590 -48 9679 END
START -3364 228 10624 1234 -417 10410 END
START -2392 476 10352 702 -876 10957 END
START -1484 724 10304 455 -1289 11369 END
START -1008 1064 10200 317 -1866 11785 END
START 124 1216 9840 -7 -2500 12383 END
START 1408 1604 9664 -320 -2748 12854 END
START 3596 1992 9032 -768 -2471 12893 END
START 5144 2228 9660 -1479 -3121 12432 END
START 6740 2584 10424 -2155 -3841 11658 END
START 8072 2872 11312 -2692 -4554 10751 END
START 9344 3020 12452 -2936 -5263 9773 END
START 10392 3012 13304 -3118 -5727 8918 END
START 11532 2772 14216 -3318 -5787 8238 END
START 12804 2248 14984 -3308 -5286 7604 END
START 14260 2256 15920 -3216 -4374 6804 END
START 14756 2172 16924 -2727 -3598 5671 END
START 15192 2056 17392 -1695 -2911 4468 END
START 14956 2132 16748 -757 -2106 3215 END
START 14428 1912 15796 -100 -1351 2191 END
START 13740 1968 14692 108 -816 1301 END
START 13012 1992 13440 -180 -178 652 END
START 12108 1604 12840 -696 493 156 END
START 10972 1320 12680 -1123 737 -313 END
START 10140 776 12460 -1400 623 -752 END
START 9616 424 12272 -1547 464 -1223 END
START 9104 208 12092 -1532 375 -1859 END
START 8232 -396 12084 -1249 15 -2701 END
START 7020 -632 11744 -1037 -911 -3512 END
START 5748 -1300 11516 -834 -2372 -4284 END
START 4680 -1428 11472 -631 -3986 -4828 END
START 3380 -1500 11292 -503 -5344 -5112 END
START 2316 -1304 10832 -522 -5251 -4558 END
START 1568 -1160 10400 -916 -4298 -3460 END
START 1280 -856 10280 -1468 -3608 -2193 END
START 1992 -1208 10064 -2343 -3341 -1244 END
START 1996 -780 10836 -2944 -3452 -702 END
START 2440 -696 11320 -3247 -3718 -298 END
START 2528 204 11868 -3434 -3473 -159 END
START 2544 1104 12060 -3680 -2681 167 END
START 2060 1844 12440 -4077 -1902 670 END
START 1748 2584 12828 -4692 -1686 1578 END
START 2368 3080 13220 -5446 -1667 2735 END
START 3468 4052 14056 -6297 -1672 3666 END
START 4528 4496 15028 -7169 -1733 4055 END
START 5992 4600 16272 -7961 -1682 4365 END
START 7664 4648 17844 -8510 -1158 4360 END
START 8824 4452 19508 -8348 -852 3573 END
START 8880 4228 21360 -7547 -955 2531 END
START 8736 4060 21828 -6634 -1136 1826 END
START 8308 4160 22124 -5883 -1560 1608 END
START 8644 4108 22284 -5389 -1892 1735 END
START 9076 3912 22512 -4901 -2036 1886 END
START 9964 3384 22240 -4384 -2099 2013 END
START 11384 2972 22500 -3956 -1770 1883 END
START 12828 2344 22496 -3145 -1064 1035 END
START 13716 1888 22064 -2135 130 -338 END
START 13732 1192 21604 -1236 1168 -1688 END
START 12940 732 21188 -178 1709 -3085 END
START 11772 412 20104 593 1756 -4089 END
START 10796 104 19488 991 1400 -4588 END
START 10268 -136 18720 1391 1160 -4779 END
START 9872 -208 18164 1976 965 -4857 END
START 10132 -224 17292 2531 701 -4979 END
START 10260 -80 16152 3047 379 -5361 END
START 10672 -120 14976 3300 241 -5785 END
START 10912 88 13656 3093 642 -6204 END
START 10788 88 12876 2902 1266 -6676 END
START 10464 104 12392 2624 1703 -7029 END
START 10100 12 11880 2136 1761 -7263 END
START 10348 -56 12052 1862 1512 -7543 END
START 10380 -120 11748 1916 1280 -8121 END
START 10496 -136 11436 1959 1186 -8816 END
START 10220 -68 10868 1798 1521 -9436 END
START 9912 -16 9948 1412 2511 -9800 END
START 9500 -68 9216 814 4033 -9999 END
START 8780 -224 9032 125 5336 -10227 END
START 7752 -308 8992 -491 5879 -10429 END
START 6552 -276 9056 -946 5712 -10516 END
START 5872 -192 8908 -1169 5094 -10625 END
START 5556 -96 8044 -1750 4727 -10843 END
START 4712 -172 7640 -2838 4782 -11087 END
START 3404 -488 7584 -4048 5279 -11097 END
START 2428 -768 8080 -5077 5793 -10760 END
START 1156 -1204 9160 -5648 5748 -10465 END
START 188 -1376 10212 -5551 5311 -10148 END
START -732 -1608 10116 -5366 4865 -9654 END
START -1456 -1528 9688 -5426 4480 -9190 END
START -2584 -1768 9564 -5797 4237 -8628 END
START -3688 -1900 9476 -6410 4291 -7733 END
START -4792 -1948 10000 -6949 4348 -6680 END
START -5412 -2100 10088 -7466 4459 -5552 END
START -6400 -2300 10776 -8062 4618 -4455 END
START -7348 -2204 11628 -8570 4374 -3236 END
START -8136 -2304 12556 -9098 4288 -1996 END
START -8756 -2272 13728 -9221 3881 -662 END
START -8484 -2492 13900 -9488 3308 557 END
START -8208 -2700 14504 -9927 2812 1560 END
START -7952 -2724 15572 -10214 2372 2332 END
START -7904 -3212 16772 -10254 1991 2877 END
START -8732 -3636 17952 -9847 1497 3654 END
START -9240 -3960 18820 -9385 682 4821 END
START -9284 -4544 20124 -8742 -317 6173 END
START -8816 -4736 20804 -7594 -1385 7529 END
START -7860 -5028 20948 -6412 -2258 8872 END
START -6680 -4884 20872 -5648 -3173 10229 END
START -4956 -4968 21248 -5007 -3646 11472 END
START -2992 -4752 21568 -4253 -3453 12284 END
START -888 -4932 21424 -3306 -3603 12650 END
START 748 -4480 21136 -2357 -3660 12586 END
START 2244 -4148 20748 -1812 -3857 12609 END
START 3748 -3972 20540 -1272 -3876 12621 END
START 5300 -3744 20032 -619 -3266 12478 END
START 6412 -3544 19768 -155 -2494 12181 END
START 7516 -3144 18948 140 -1663 12200 END
START 8588 -2988 18752 248 -911 12230 END
START 9808 -2832 18348 281 -522 12089 END
START 10828 -2564 18264 508 -512 11353 END
START 12072 -2156 18068 1022 -1063 10451 END
START 13388 -1512 17568 1629 -1742 9116 END
START 14388 -976 16732 1826 -1818 7613 END
START 15028 -576 15956 1824 -1283 6221 END
START 15000 -132 15300 1845 -655 4699 END
START 14540 56 14680 1617 -4 3383 END
START 14232 -84 14228 1074 489 2469 END
START 13544 -216 14040 459 828 1574 END
START 12880 -576 14208 -48 944 723 END
START 12192 -840 14044 -562 936 97 END
START 11512 -1264 14600 -1044 664 -542 END
START 10980 -1936 15076 -1207 218 -1341 END
START 10296 -2296 15180 -1168 -138 -2259 END
START 9400 -2588 15224 -1488 -160 -3097 END
START 8192 -2828 15004 -2088 678 -3538 END
START 6908 -3224 15500 -2720 1589 -3719 END
START 6068 -3512 16008 -3187 2062 -3809 END
START 5096 -3560 16612 -3382 1976 -3798 END