START -9260 -3316 16816 -542 -2564 376 END
START -10548 -4272 20708 -317 -2548 920 END
START -9524 -3904 17036 453 -2606 1865 END
START -9400 -4084 16028 1020 -2711 3918 END
START -9292 -4208 15484 987 -2848 6378 END
START -8508 -4292 14816 767 -3232 8778 END
START -6784 -4400 13920 466 -3255 10882 END
START -5076 -4820 13888 279 -3179 12563 END
START -3640 -4576 14044 762 -2343 13805 END
START -2552 -4128 13864 1429 -1709 14825 END
START -1328 -3720 13176 2226 -1130 15617 END
START -184 -2968 12284 2753 -771 16167 END
START 824 -2240 11536 2939 -1135 16479 END
START 1776 -1360 10888 3155 -1987 16527 END
START 2876 -580 9700 2841 -3081 16652 END
START 4420 232 9036 1974 -3760 16728 END
START 6224 1144 9156 946 -3909 16607 END
START 7720 1876 9724 136 -3873 16046 END
START 8776 2480 10308 -284 -3990 15361 END
START 9840 2912 11044 -762 -4167 14743 END
START 11336 3244 11736 -1101 -4501 14128 END
START 12684 3388 12172 -1250 -4092 13409 END
START 14116 3524 12612 -1341 -3379 12359 END
START 15188 3796 13296 -1319 -3010 11060 END
START 16600 3908 13372 -1243 -2435 9368 END
START 16904 4088 13620 -1137 -1719 7621 END
START 16820 4124 14556 -946 -1280 5529 END
START 16156 3576 14292 -613 -735 4094 END
START 15688 2860 13684 -621 -106 2609 END
START 14632 2412 13456 -568 351 1266 END
START 13620 1600 13048 -399 767 17 END
START 12584 1144 12488 -52 881 -967 END
START 11404 576 11860 307 569 -1966 END
START 10500 176 11132 629 -128 -3007 END
START 9328 44 10280 716 -948 -4117 END
START 8036 184 9952 610 -1668 -5053 END
START 6136 132 9348 387 -2191 -5732 END
START 3988 228 8760 -131 -1913 -5666 END
START 2148 -140 8484 -879 -1461 -4874 END
START 788 -544 8564 -1692 -1892 -3756 END
START 140 -536 8676 -2725 -2924 -2405 END
START 116 -96 9096 -3911 -3988 -1060 END
START 504 384 10544 -4783 -4954 -117 END
START 856 824 11512 -5083 -5391 380 END
START 904 1392 11952 -5186 -5050 966 END
START 1048 1776 12124 -5547 -4251 1635 END
START 1288 2488 11932 -6338 -3140 2595 END
START 1452 2804 12500 -7544 -2227 3636 END
START 1840 3228 13516 -8707 -1958 4728 END
START 2700 3428 14912 -9696 -2210 5670 END
START 3824 3540 16140 -10554 -2391 6506 END
START 5628 3460 17920 -11028 -2249 7000 END
START 7588 3352 19632 -10800 -1777 6939 END
START 9048 3328 21156 -9992 -1140 6401 END
START 10280 3308 22100 -8896 -903 5471 END
START 11420 3296 22832 -7894 -1033 4438 END
START 12652 3524 23564 -6883 -1614 3123 END
START 13660 3556 24000 -5613 -2176 1433 END
START 14224 3232 24132 -4203 -2335 -184 END
START 14664 2992 23964 -3014 -2284 -1508 END
START 15288 2728 23716 -2140 -1614 -2783 END
START 15436 2316 23060 -1366 -223 -4054 END
START 15204 1592 23104 -516 1077 -5118 END
START 14920 1156 22692 362 2002 -6137 END
START 14580 808 22076 1275 2705 -7244 END
START 13788 332 21344 2203 3171 -8286 END
START 12992 132 20400 3229 3171 -9186 END
START 12336 -112 19312 4229 2702 -10076 END
START 11844 -96 17896 5173 1965 -11208 END
START 11200 -28 16872 6188 1074 -12211 END
START 10592 204 15068 7122 255 -13206 END
START 10064 484 13064 7610 -270 -14098 END
START 9128 660 10716 7543 -266 -14777 END
START 7964 908 8680 6769 366 -15027 END
START 6620 1056 7004 5438 1179 -14761 END
START 5024 1024 5824 3630 2320 -13888 END
START 3948 1072 4752 1524 3527 -12602 END
START 2960 1228 4524 -801 4413 -11137 END
START 2752 844 4836 -3029 4645 -9725 END
START 2856 640 5796 -4768 4468 -8630 END
START 3468 364 6756 -5825 4575 -8088 END
START 4020 -388 7908 -6363 5000 -7975 END
START 4064 -792 9136 -6336 5759 -8187 END
START 3632 -1036 9928 -5834 6370 -8567 END
START 2852 -1256 10792 -4970 6195 -8968 END
START 2512 -1168 10528 -4331 5764 -9283 END
START 1896 -1372 10888 -3798 5162 -9716 END
START 1260 -1480 10780 -3254 3903 -10237 END
START 508 -1464 10360 -3117 2541 -10624 END
START -508 -1672 9488 -3584 1910 -10727 END
START -1744 -1672 9248 -4735 2346 -10329 END
START -3328 -1860 9604 -6100 3242 -9466 END
START -4712 -2384 10300 -7244 3965 -8417 END
START -6136 -2716 11064 -8168 4250 -7149 END
START -7408 -3048 12056 -8896 4144 -5821 END
START -8616 -3696 12700 -9448 3971 -4398 END
START -9476 -4272 13620 -9872 3223 -2939 END
START -10376 -4548 14384 -10242 2785 -1255 END
START -10876 -5156 15888 -10207 1974 533 END
START -11256 -5660 17208 -9660 873 2333 END
START -10920 -5776 17816 -9041 -36 4222 END
START -10168 -5736 18624 -8485 43 6056 END
START -9224 -5908 19548 -7998 511 7590 END
START -8072 -5748 20540 -7469 1043 8880 END
START -7396 -5788 21724 -6339 912 9513 END
START -7300 -5408 22464 -4881 74 9911 END
START -7088 -5332 23000 -3643 -1625 10330 END
START -6592 -5404 22680 -2412 -3688 11088 END
START -5404 -5044 22724 -1461 -4659 12301 END
START -4152 -4828 22500 -513 -4582 13549 END
START -2456 -4488 21932 445 -3762 14931 END
START -788 -3932 21140 1036 -2789 16205 END
START 1400 -3656 20252 1582 -1735 17025 END
START 3876 -3200 18888 1605 -400 17308 END
START 5524 -2484 18504 1359 841 17322 END
START 7160 -1948 18224 1164 1734 16983 END
START 8680 -1428 17876 1019 2697 16535 END
START 10428 -1160 17468 990 3387 15845 END
START 12104 -1168 16964 998 4286 14888 END
START 13200 -700 16876 1383 4548 13548 END
START 14092 -412 16532 1641 4401 11771 END
START 14540 -260 16072 1878 3879 9815 END
START 14732 -132 15936 2255 3131 7708 END
START 14612 -184 15700 2738 2052 5584 END
START 13864 -100 15384 3080 980 3578 END
START 12864 -44 14960 3277 93 1957 END
START 11952 -128 14280 3069 -337 990 END
START 11028 -344 13836 2516 -277 456 END
START 10236 -364 13800 1819 117 295 END
START 9632 -624 13576 1099 576 234 END