START -3080 -1728 14804 2263 -2299 6055 END
START -5256 -1976 19544 2296 -2501 6450 END
START -3968 -2028 15496 2495 -2500 6977 END
START -3372 -2052 13732 2435 -2172 8226 END
START -3492 -2060 13132 2338 -894 9821 END
START -3444 -2008 12488 2253 135 11432 END
START -2764 -1872 12260 1782 -275 12667 END
START -996 -1860 11736 1457 -2304 13280 END
START 1192 -1132 11320 973 -4858 13238 END
START 3396 -368 11684 651 -6764 12726 END
START 5236 612 11888 658 -7834 12125 END
START 7216 1592 11912 500 -7875 11772 END
START 9216 1960 11888 338 -6863 11125 END
START 10140 2476 12236 481 -5212 10183 END
START 10984 2492 12284 873 -3382 9240 END
START 10804 2420 11624 1305 -2230 8341 END
START 10376 2840 11076 674 -2107 7884 END
START 10452 2628 11004 -343 -2344 7546 END
START 10752 2332 11432 -750 -2560 6954 END
START 10960 1656 11644 -1054 -2673 6273 END
START 10748 756 11736 -919 -2506 5476 END
START 10608 -80 11344 -623 -2219 4618 END
START 10156 -884 10836 -441 -2236 3654 END
START 9096 -1416 10432 -394 -2592 2482 END
START 7624 -1928 9756 -563 -3354 1704 END
START 6284 -1808 9992 -853 -4418 1692 END
START 5360 -1200 10052 -1197 -5100 2266 END
START 5380 292 10452 -1639 -5416 3228 END
START 6448 1304 10784 -2066 -4683 4040 END
START 7620 1972 10672 -2190 -3021 4368 END
START 8356 2648 10584 -2502 -1419 4063 END
START 7768 3092 11092 -2979 -867 3702 END
START 7576 3976 11532 -3384 -1426 3650 END
START 8184 4308 11588 -3849 -1802 3480 END
START 8796 5280 11656 -4623 -1521 3243 END
START 9236 5852 12532 -5525 -700 2761 END
START 8960 5748 13308 -6209 1036 2200 END
START 7828 5800 14112 -6953 2839 2020 END
START 6972 5180 15324 -7624 3305 2105 END
START 6460 4976 16780 -7728 2632 2081 END
START 6248 5156 17696 -7598 1012 1881 END
START 6668 4664 18344 -7382 -1160 1488 END
START 6936 4372 19000 -7204 -2542 1337 END
START 8124 4056 19904 -6934 -3440 1164 END
START 9192 3760 20232 -6557 -3028 665 END
START 9576 3408 20692 -6391 -1634 230 END
START 9496 2864 21704 -6116 -927 -71 END
START 9628 2068 22380 -5621 -941 -283 END
START 9932 1320 22952 -4872 -1277 -523 END
START 10504 496 23048 -4030 -1821 -886 END
START 11392 -92 23200 -3237 -2259 -1451 END
START 12584 -716 23296 -2128 -2593 -2277 END
START 13124 -1184 22992 -815 -2513 -3376 END
START 13412 -1768 22140 388 -1608 -4229 END
START 13248 -2232 21180 1477 -201 -4908 END
START 12616 -2360 20128 2516 896 -5460 END
START 12176 -2384 18692 3212 1706 -5718 END
START 11708 -2412 17748 3762 2013 -6003 END
START 11356 -2332 16804 4387 1908 -6330 END
START 11152 -2052 15312 4913 1725 -6729 END
START 11040 -1836 13884 5246 1471 -7333 END
START 10676 -1420 12244 5331 990 -7969 END
START 10740 -972 11284 4976 433 -8483 END
START 10780 -688 9940 4324 248 -9148 END
START 10440 -552 9588 3744 593 -9765 END
START 9680 -388 8848 3192 1200 -10158 END
START 8820 -248 8188 2304 2142 -10264 END
START 7804 -212 8072 1498 3026 -10088 END
START 7288 40 7884 711 3589 -9764 END
START 6840 128 8068 65 3743 -9582 END
START 6452 300 7992 -370 3764 -9529 END
START 6464 564 7748 -759 3815 -9606 END
START 6000 632 7824 -1182 3686 -9949 END
START 5668 880 7796 -1439 3596 -10495 END
START 4816 916 7532 -1671 3372 -11254 END
START 3644 976 7040 -2154 3352 -11800 END
START 2152 672 6556 -3026 3784 -11912 END
START 720 364 6620 -3896 4080 -11655 END
START -764 284 6728 -4723 3800 -11181 END
START -2008 228 7272 -5586 2996 -10425 END
START -2512 -168 7536 -6586 2040 -9482 END
START -2812 -304 8232 -7630 1356 -8397 END
START -3064 -596 9148 -8429 1579 -7301 END
START -3088 -780 10232 -8768 2453 -6234 END
START -3464 -1008 11268 -8668 3266 -5510 END
START -4144 -1136 11572 -8502 3796 -4939 END
START -5460 -1400 11940 -8658 3869 -4464 END
START -6624 -1584 12580 -9029 3532 -3774 END
START -7792 -2056 13268 -9353 2958 -2869 END
START -9084 -2212 14384 -9529 1986 -1772 END
START -10076 -2284 15372 -9651 1613 -491 END
START -10980 -2908 16704 -9613 1543 866 END
START -11876 -3236 17600 -9562 1173 2511 END
START -12108 -3428 18784 -9552 200 4682 END
START -11624 -3772 20068 -9283 -922 6871 END
START -10488 -4032 20972 -8762 -1837 9162 END
START -8920 -4192 21832 -8022 -2119 11159 END
START -6760 -4136 22648 -7081 -1894 12715 END
START -5092 -4112 23448 -5775 -1907 13486 END
START -3440 -3784 23412 -4528 -2543 14052 END
START -1260 -3708 23424 -3572 -3229 14488 END
START 2012 -3568 23232 -2833 -3671 14286 END
START 4196 -3868 23728 -1814 -3212 13546 END
START 5796 -3880 23820 -310 -2001 12495 END
START 6552 -3488 23368 872 -295 12119 END
START 7540 -3424 22744 1920 1479 12017 END
START 8868 -3192 21956 3217 3393 12049 END
START 9884 -3116 20696 4771 5180 12317 END
START 10628 -2512 19356 6106 6488 12191 END
START 11588 -2088 17664 6843 7127 11537 END
START 13056 -1772 16108 7067 7248 10243 END
START 13464 -1420 14784 7084 6727 8081 END
START 12968 -1316 13496 7082 5391 5593 END
START 12160 -1424 12288 6616 3665 3518 END